[{"bd":"DAPP_GLOBALE_1307_BD","subnet":"172.17.7.0/24","anycast_gateway":"172.17.7.1","vrf_aci_name":"DAPP_GLOBALE_VRF","tenant":"SAQ_DEV_FW-BLANC","vlan_id":1307,"id":1}, 
 {"bd":"DAPP_OW_1304_BD","subnet":"172.17.4.0/24","anycast_gateway":"172.17.4.1","vrf_aci_name":"DAPP_OW_VRF","tenant":"SAQ_DEV_FW-BLANC","vlan_id":1304,"id":2}, 
 {"bd":"DGES_GLOBALE_1301_BD","subnet":"172.17.1.0/24","anycast_gateway":"172.17.1.1","vrf_aci_name":"DGES_GLOBALE_VRF","tenant":"SAQ_DEV_FW-BLANC","vlan_id":1301,"id":3}, 
 {"bd":"DAPP_STD1_B_1311_BD","subnet":"172.17.8.0/24","anycast_gateway":"172.17.8.1","vrf_aci_name":"DAPP_STD1_B_VRF","tenant":"SAQ_DEV_FW-QA","vlan_id":1311,"id":4}, 
 {"bd":"DAPP_STD1_J_1312_BD","subnet":"172.17.9.0/24","anycast_gateway":"172.17.9.1","vrf_aci_name":"DAPP_STD1_J_VRF","tenant":"SAQ_DEV_FW-QA","vlan_id":1312,"id":5}, 
 {"bd":"DMZ_808_808_BD","subnet":"198.140.134.144/28","anycast_gateway":"198.140.134.145","vrf_aci_name":"DMZ_808_VRF","tenant":"SAQ_DMZ_FW-QA","vlan_id":808,"id":6}, 
 {"bd":"QDMZ_GLOBALE_789_BD","subnet":"192.168.177.0/26","anycast_gateway":"192.168.177.1","vrf_aci_name":"QDMZ_GLOBALE_VRF","tenant":"SAQ_DMZ_FW-QA","vlan_id":789,"id":7}, 
 {"bd":"QEXT_APPPUB_784_BD","subnet":"192.168.172.0/24","anycast_gateway":"192.168.172.1","vrf_aci_name":"QEXT_APPPUB_VRF","tenant":"SAQ_DMZ_FW-QA","vlan_id":784,"id":8}, 
 {"bd":"QEXT_BDPUB_787_BD","subnet":"192.168.174.0/24","anycast_gateway":"192.168.174.1","vrf_aci_name":"QEXT_BDPUB_VRF","tenant":"SAQ_DMZ_FW-QA","vlan_id":787,"id":9}, 
 {"bd":"QEXT_WEBPUB_776_BD","subnet":"192.168.167.0/24","anycast_gateway":"192.168.167.1","vrf_aci_name":"QEXT_WEBPUB_VRF","tenant":"SAQ_DMZ_FW-QA","vlan_id":776,"id":10}, 
 {"bd":"ADMIN_TELCO_760_BD","subnet":"192.168.180.0/24","anycast_gateway":"192.168.180.6","vrf_aci_name":"ADMIN_TELCO_VRF","tenant":"SAQ_PRD_FW-BLANC","vlan_id":760,"id":11}, 
 {"bd":"ADMIN_TELEPHONIE_658_BD","subnet":"172.26.240.0/24","anycast_gateway":"172.26.240.161","vrf_aci_name":"ADMIN_TELEPHONIE_VRF","tenant":"SAQ_PRD_FW-BLANC","vlan_id":658,"id":12}, 
 {"bd":"ADMIN_UNIX_643_BD","subnet":"172.26.240.0/24","anycast_gateway":"172.26.240.1","vrf_aci_name":"ADMIN_UNIX_VRF","tenant":"SAQ_PRD_FW-BLANC","vlan_id":643,"id":13}, 
 {"bd":"ADMIN_WINDOWS_644_BD","subnet":"172.26.239.0/24","anycast_gateway":"172.26.239.1","vrf_aci_name":"ADMIN_WINDOWS_VRF","tenant":"SAQ_PRD_FW-BLANC","vlan_id":644,"id":14}, 
 {"bd":"ASSEMBLAGE_WINDOWS_635_BD","subnet":"172.26.252.0/24","anycast_gateway":"172.26.252.65","vrf_aci_name":"ASSEMBLAGE_WINDOWS_VRF","tenant":"SAQ_PRD_FW-BLANC","vlan_id":635,"id":15}, 
 {"bd":"CDSWINDOWS_636_BD","subnet":"172.26.252.0/24","anycast_gateway":"172.26.252.193","vrf_aci_name":"CDSWINDOWS_VRF","tenant":"SAQ_PRD_FW-BLANC","vlan_id":636,"id":16}, 
 {"bd":"ESX_MGMT_315_BD","subnet":"172.26.15.0/24","anycast_gateway":"172.26.15.1","vrf_aci_name":"ESX_MGMT_VRF","tenant":"SAQ_PRD_FW-BLANC","vlan_id":315,"id":17}, 
 {"bd":"GROUPE_TELECOM_307_BD","subnet":"172.26.7.0/24","anycast_gateway":"172.26.7.1","vrf_aci_name":"GROUPE_TELECOM_VRF","tenant":"SAQ_PRD_FW-BLANC","vlan_id":307,"id":18}, 
 {"bd":"HERITAGE_1_10_BD","subnet":"172.20.4.0/24","anycast_gateway":"172.20.4.1","vrf_aci_name":"HERITAGE_1_VRF","tenant":"SAQ_PRD_FW-BLANC","vlan_id":10,"id":19}, 
 {"bd":"HERITAGE_2_12_BD","subnet":"172.20.5.0/24","anycast_gateway":"172.20.5.1","vrf_aci_name":"HERITAGE_2_VRF","tenant":"SAQ_PRD_FW-BLANC","vlan_id":12,"id":20}, 
 {"bd":"HERITAGE_3_13_BD","subnet":"172.20.6.0/24","anycast_gateway":"172.20.6.1","vrf_aci_name":"HERITAGE_3_VRF","tenant":"SAQ_PRD_FW-BLANC","vlan_id":13,"id":21}, 
 {"bd":"IMPLECT_642_BD","subnet":"172.26.246.0/24","anycast_gateway":"172.26.246.65","vrf_aci_name":"IMPLECT_VRF","tenant":"SAQ_PRD_FW-BLANC","vlan_id":642,"id":22}, 
 {"bd":"LEXT_OCINGEGRAC01_361_BD","subnet":"172.26.61.0/24","anycast_gateway":"172.26.61.1","vrf_aci_name":"LEXT_OCINGEGRAC01_VRF","tenant":"SAQ_PRD_FW-BLANC","vlan_id":361,"id":23}, 
 {"bd":"LEXT_OCINGEGRAC02_362_BD","subnet":"172.26.62.0/24","anycast_gateway":"172.26.62.1","vrf_aci_name":"LEXT_OCINGEGRAC02_VRF","tenant":"SAQ_PRD_FW-BLANC","vlan_id":362,"id":24}, 
 {"bd":"LEXT_OCMGMTACI01_359_BD","subnet":"172.26.59.0/24","anycast_gateway":"172.26.59.1","vrf_aci_name":"LEXT_OCMGMTACI01_VRF","tenant":"SAQ_PRD_FW-BLANC","vlan_id":359,"id":25}, 
 {"bd":"MADM_ACCES_681_BD","subnet":"172.21.1.0/24","anycast_gateway":"172.21.1.1","vrf_aci_name":"MADM_ACCES_VRF","tenant":"SAQ_PRD_FW-BLANC","vlan_id":681,"id":26}, 
 {"bd":"MGES_GLOBALE_682_BD","subnet":"172.21.3.0/24","anycast_gateway":"172.21.3.1","vrf_aci_name":"MGES_GLOBALE_VRF","tenant":"SAQ_PRD_FW-BLANC","vlan_id":682,"id":27}, 
 {"bd":"MONTAGE_WINDOWS_649_BD","subnet":"172.26.252.0/24","anycast_gateway":"172.26.252.225","vrf_aci_name":"MONTAGE_WINDOWS_VRF","tenant":"SAQ_PRD_FW-BLANC","vlan_id":649,"id":28}, 
 {"bd":"NS_PROD__CORPO_VIP_323_BD","subnet":"172.26.23.0/24","anycast_gateway":"172.26.23.1","vrf_aci_name":"NS_PROD__CORPO_VIP_VRF","tenant":"SAQ_PRD_FW-BLANC","vlan_id":323,"id":29}, 
 {"bd":"PADM_GLOBALE_700_BD","subnet":"172.21.18.0/24","anycast_gateway":"172.21.18.1","vrf_aci_name":"PADM_GLOBALE_VRF","tenant":"SAQ_PRD_FW-BLANC","vlan_id":700,"id":30}, 
 {"bd":"PAPP_BDSENS_725_BD","subnet":"172.21.20.0/24","anycast_gateway":"172.21.20.1","vrf_aci_name":"PAPP_BDSENS_VRF","tenant":"SAQ_PRD_FW-BLANC","vlan_id":725,"id":31}, 
 {"bd":"PAPP_GLOBALE_696_BD","subnet":"172.21.8.0/24","anycast_gateway":"172.21.8.1","vrf_aci_name":"PAPP_GLOBALE_VRF","tenant":"SAQ_PRD_FW-BLANC","vlan_id":696,"id":32}, 
 {"bd":"PAPP_OWAPP_698_BD","subnet":"172.21.14.0/24","anycast_gateway":"172.21.14.1","vrf_aci_name":"PAPP_OWAPP_VRF","tenant":"SAQ_PRD_FW-BLANC","vlan_id":698,"id":33}, 
 {"bd":"PAPP_OWBD_697_BD","subnet":"172.21.13.0/24","anycast_gateway":"172.21.13.1","vrf_aci_name":"PAPP_OWBD_VRF","tenant":"SAQ_PRD_FW-BLANC","vlan_id":697,"id":34}, 
 {"bd":"PAPP_PEMBD_724_BD","subnet":"172.21.16.0/24","anycast_gateway":"172.21.16.1","vrf_aci_name":"PAPP_PEMBD_VRF","tenant":"SAQ_PRD_FW-BLANC","vlan_id":724,"id":35}, 
 {"bd":"PAPP_STDAPP1_1865_BD","subnet":"172.21.65.0/24","anycast_gateway":"172.21.65.1","vrf_aci_name":"PAPP_STDAPP1_VRF","tenant":"SAQ_PRD_FW-BLANC","vlan_id":1865,"id":36}, 
 {"bd":"PAPP_STDBD1_1897_BD","subnet":"172.21.97.0/24","anycast_gateway":"172.21.97.1","vrf_aci_name":"PAPP_STDBD1_VRF","tenant":"SAQ_PRD_FW-BLANC","vlan_id":1897,"id":37}, 
 {"bd":"PAPP_STDWEB1_1833_BD","subnet":"172.21.33.0/24","anycast_gateway":"172.21.33.1","vrf_aci_name":"PAPP_STDWEB1_VRF","tenant":"SAQ_PRD_FW-BLANC","vlan_id":1833,"id":38}, 
 {"bd":"PAPP_WINDOWS_312_BD","subnet":"172.26.12.0/24","anycast_gateway":"172.26.12.1","vrf_aci_name":"PAPP_WINDOWS_VRF","tenant":"SAQ_PRD_FW-BLANC","vlan_id":312,"id":39}, 
 {"bd":"PBUR_PTNOINTERNET_613_BD","subnet":"172.26.240.0/24","anycast_gateway":"172.26.240.193","vrf_aci_name":"PBUR_PTNOINTERNET_VRF","tenant":"SAQ_PRD_FW-BLANC","vlan_id":613,"id":40}, 
 {"bd":"PGES_GLOBALE_695_BD","subnet":"172.21.11.0/24","anycast_gateway":"172.21.11.1","vrf_aci_name":"PGES_GLOBALE_VRF","tenant":"SAQ_PRD_FW-BLANC","vlan_id":695,"id":41}, 
 {"bd":"PGES_IMMEUBLE_717_BD","subnet":"172.26.248.0/24","anycast_gateway":"172.26.248.65","vrf_aci_name":"PGES_IMMEUBLE_VRF","tenant":"SAQ_PRD_FW-BLANC","vlan_id":717,"id":42}, 
 {"bd":"PSEC_CONTROL_683_BD","subnet":"172.21.4.0/24","anycast_gateway":"172.21.4.1","vrf_aci_name":"PSEC_CONTROL_VRF","tenant":"SAQ_PRD_FW-BLANC","vlan_id":683,"id":43}, 
 {"bd":"PSEC_INFRAGESTION_21_BD","subnet":"172.20.9.0/24","anycast_gateway":"172.20.9.1","vrf_aci_name":"PSEC_INFRAGESTION_VRF","tenant":"SAQ_PRD_FW-BLANC","vlan_id":21,"id":44}, 
 {"bd":"PSEC_WINDOWS_319_BD","subnet":"172.26.19.0/24","anycast_gateway":"172.26.19.1","vrf_aci_name":"PSEC_WINDOWS_VRF","tenant":"SAQ_PRD_FW-BLANC","vlan_id":319,"id":45}, 
 {"bd":"PSVC_AUTH_628_BD","subnet":"172.26.176.0/24","anycast_gateway":"172.26.176.129","vrf_aci_name":"PSVC_AUTH_VRF","tenant":"SAQ_PRD_FW-BLANC","vlan_id":628,"id":46}, 
 {"bd":"PSVC_BLEU2SAQ_306_BD","subnet":"172.26.255.0/24","anycast_gateway":"172.26.255.33","vrf_aci_name":"PSVC_BLEU2SAQ_VRF","tenant":"SAQ_PRD_FW-BLANC","vlan_id":306,"id":47}, 
 {"bd":"PSVC_GLOBALE_684_BD","subnet":"172.21.2.0/24","anycast_gateway":"172.21.2.1","vrf_aci_name":"PSVC_GLOBALE_VRF","tenant":"SAQ_PRD_FW-BLANC","vlan_id":684,"id":48}, 
 {"bd":"PSVC_HUBDMZ_627_BD","subnet":"172.26.138.0/24","anycast_gateway":"172.26.138.1","vrf_aci_name":"PSVC_HUBDMZ_VRF","tenant":"SAQ_PRD_FW-BLANC","vlan_id":627,"id":49}, 
 {"bd":"PSVC_JAUNE2SAQ_310_BD","subnet":"172.26.255.0/24","anycast_gateway":"172.26.255.49","vrf_aci_name":"PSVC_JAUNE2SAQ_VRF","tenant":"SAQ_PRD_FW-BLANC","vlan_id":310,"id":50}, 
 {"bd":"PSVC_LINUX2_734_BD","subnet":"172.26.252.0/24","anycast_gateway":"172.26.252.129","vrf_aci_name":"PSVC_LINUX2_VRF","tenant":"SAQ_PRD_FW-BLANC","vlan_id":734,"id":51}, 
 {"bd":"PSVC_OC2SAQ_303_BD","subnet":"172.26.255.0/24","anycast_gateway":"172.26.255.81","vrf_aci_name":"PSVC_OC2SAQ_VRF","tenant":"SAQ_PRD_FW-BLANC","vlan_id":303,"id":52}, 
 {"bd":"PSVC_SUCC2SAQ_19_BD","subnet":"172.26.63.0/24","anycast_gateway":"172.26.63.1","vrf_aci_name":"PSVC_SUCC2SAQ_VRF","tenant":"SAQ_PRD_FW-BLANC","vlan_id":19,"id":53}, 
 {"bd":"PSVC_TRUSTAD_675_BD","subnet":"172.26.245.0/24","anycast_gateway":"172.26.245.33","vrf_aci_name":"PSVC_TRUSTAD_VRF","tenant":"SAQ_PRD_FW-BLANC","vlan_id":675,"id":54}, 
 {"bd":"SAQ_SUNGUARD_SAN_611_BD","subnet":"172.26.245.0/24","anycast_gateway":"172.26.245.17","vrf_aci_name":"SAQ_SUNGUARD_SAN_VRF","tenant":"SAQ_PRD_FW-BLANC","vlan_id":611,"id":55}, 
 {"bd":"SERVEURS_AIX_314_BD","subnet":"172.26.14.0/24","anycast_gateway":"172.26.14.1","vrf_aci_name":"SERVEURS_AIX_VRF","tenant":"SAQ_PRD_FW-BLANC","vlan_id":314,"id":56}, 
 {"bd":"SERVEURS_BUR_313_BD","subnet":"172.26.13.0/24","anycast_gateway":"172.26.13.1","vrf_aci_name":"SERVEURS_BUR_VRF","tenant":"SAQ_PRD_FW-BLANC","vlan_id":313,"id":57}, 
 {"bd":"STOCKAGE_CDM_620_BD","subnet":"172.26.252.0/24","anycast_gateway":"172.26.252.161","vrf_aci_name":"STOCKAGE_CDM_VRF","tenant":"SAQ_PRD_FW-BLANC","vlan_id":620,"id":58}, 
 {"bd":"TAPP_OW_1107_BD","subnet":"172.18.1.0/24","anycast_gateway":"172.18.1.1","vrf_aci_name":"TAPP_OW_VRF","tenant":"SAQ_PRD_FW-BLANC","vlan_id":1107,"id":59}, 
 {"bd":"TELIP_GTW_711_BD","subnet":"172.30.0.0/24","anycast_gateway":"172.30.0.1","vrf_aci_name":"TELIP_GTW_VRF","tenant":"SAQ_PRD_FW-BLANC","vlan_id":711,"id":60}, 
 {"bd":"VSOP_DEV_CORPO_327_BD","subnet":"172.26.27.0/24","anycast_gateway":"172.26.27.1","vrf_aci_name":"VSOP_DEV_CORPO_VRF","tenant":"SAQ_PRD_FW-BLANC","vlan_id":327,"id":61}, 
 {"bd":"VSOP_PROD_CORPO_325_BD","subnet":"172.26.25.0/24","anycast_gateway":"172.26.25.1","vrf_aci_name":"VSOP_PROD_CORPO_VRF","tenant":"SAQ_PRD_FW-BLANC","vlan_id":325,"id":62}, 
 {"bd":"VSOP_QUALIF_CORPO_329_BD","subnet":"172.26.29.0/24","anycast_gateway":"172.26.29.1","vrf_aci_name":"VSOP_QUALIF_CORPO_VRF","tenant":"SAQ_PRD_FW-BLANC","vlan_id":329,"id":63}, 
 {"bd":"PAPP_PDVAPP1_B_1867_BD","subnet":"172.21.67.0/24","anycast_gateway":"172.21.67.1","vrf_aci_name":"PAPP_PDVAPP1_B_VRF","tenant":"SAQ_PRD_FW-BLEU","vlan_id":1867,"id":64}, 
 {"bd":"PAPP_WMSAPP1_B_1868_BD","subnet":"172.21.68.0/24","anycast_gateway":"172.21.68.1","vrf_aci_name":"PAPP_WMSAPP1_B_VRF","tenant":"SAQ_PRD_FW-BLEU","vlan_id":1868,"id":65}, 
 {"bd":"PAPP_WMSBD1_B_1900_BD","subnet":"172.21.100.0/24","anycast_gateway":"172.21.100.1","vrf_aci_name":"PAPP_WMSBD1_B_VRF","tenant":"SAQ_PRD_FW-BLEU","vlan_id":1900,"id":66}, 
 {"bd":"PAPP_WMSWEB1_B_1836_BD","subnet":"172.21.36.0/24","anycast_gateway":"172.21.36.1","vrf_aci_name":"PAPP_WMSWEB1_B_VRF","tenant":"SAQ_PRD_FW-BLEU","vlan_id":1836,"id":67}, 
 {"bd":"PAPP_PEMWAS_754_BD","subnet":"192.168.170.0/26","anycast_gateway":"192.168.170.1","vrf_aci_name":"PAPP_PEMWAS_VRF","tenant":"SAQ_PRD_FW-DMZ","vlan_id":754,"id":68}, 
 {"bd":"PDMZ_SVC_810_BD","subnet":"198.140.134.32/27","anycast_gateway":"198.140.134.38","vrf_aci_name":"PDMZ_SVC_VRF","tenant":"SAQ_PRD_FW-DMZ","vlan_id":810,"id":69}, 
 {"bd":"PEXT_APPPUB_773_BD","subnet":"192.168.163.0/24","anycast_gateway":"192.168.163.1","vrf_aci_name":"PEXT_APPPUB_VRF","tenant":"SAQ_PRD_FW-DMZ","vlan_id":773,"id":70}, 
 {"bd":"PEXT_PDPUB_775_BD","subnet":"192.168.166.0/24","anycast_gateway":"192.168.166.1","vrf_aci_name":"PEXT_PDPUB_VRF","tenant":"SAQ_PRD_FW-DMZ","vlan_id":775,"id":71}, 
 {"bd":"PEXT_WEBPUB_763_BD","subnet":"192.168.161.0/24","anycast_gateway":"192.168.161.1","vrf_aci_name":"PEXT_WEBPUB_VRF","tenant":"SAQ_PRD_FW-DMZ","vlan_id":763,"id":72}, 
 {"bd":"PMDZ_GLOBALE_779_BD","subnet":"192.168.179.0/26","anycast_gateway":"192.168.179.1","vrf_aci_name":"PMDZ_GLOBALE_VRF","tenant":"SAQ_PRD_FW-DMZ","vlan_id":779,"id":73}, 
 {"bd":"PSVC_AD_11_BD","subnet":"172.20.7.0/24","anycast_gateway":"172.20.7.1","vrf_aci_name":"PSVC_AD_VRF","tenant":"SAQ_PRD_FW-JAUNE","vlan_id":11,"id":74}, 
 {"bd":"PSVC_BD_J_942_BD","subnet":"172.20.69.0/24","anycast_gateway":"172.20.69.1","vrf_aci_name":"PSVC_BD_J_VRF","tenant":"SAQ_PRD_FW-JAUNE","vlan_id":942,"id":75}, 
 {"bd":"PSVC_BUREAUTIQUE_943_BD","subnet":"172.20.70.0/24","anycast_gateway":"172.20.70.1","vrf_aci_name":"PSVC_BUREAUTIQUE_VRF","tenant":"SAQ_PRD_FW-JAUNE","vlan_id":943,"id":76}, 
 {"bd":"PSVC_CERTIFICATS_18_BD","subnet":"172.20.8.0/24","anycast_gateway":"172.20.8.1","vrf_aci_name":"PSVC_CERTIFICATS_VRF","tenant":"SAQ_PRD_FW-JAUNE","vlan_id":18,"id":77}, 
 {"bd":"PSVC_EDD_945_BD","subnet":"172.20.72.0/24","anycast_gateway":"172.20.72.1","vrf_aci_name":"PSVC_EDD_VRF","tenant":"SAQ_PRD_FW-JAUNE","vlan_id":945,"id":78}, 
 {"bd":"PSVC_ELK_937_BD","subnet":"172.20.64.0/24","anycast_gateway":"172.20.64.1","vrf_aci_name":"PSVC_ELK_VRF","tenant":"SAQ_PRD_FW-JAUNE","vlan_id":937,"id":79}, 
 {"bd":"PSVC_GESTIONUNIX_15_BD","subnet":"172.20.12.0/24","anycast_gateway":"172.20.12.1","vrf_aci_name":"PSVC_GESTIONUNIX_VRF","tenant":"SAQ_PRD_FW-JAUNE","vlan_id":15,"id":80}, 
 {"bd":"PSVC_HUBAD_600_BD","subnet":"172.26.252.0/27","anycast_gateway":"172.26.252.1","vrf_aci_name":"PSVC_HUBAD_VRF","tenant":"SAQ_PRD_FW-JAUNE","vlan_id":600,"id":81}, 
 {"bd":"PSVC_JDEFATSAQ_17_BD","subnet":"172.20.14.0/24","anycast_gateway":"172.20.14.1","vrf_aci_name":"PSVC_JDEFATSAQ_VRF","tenant":"SAQ_PRD_FW-JAUNE","vlan_id":17,"id":82}, 
 {"bd":"PSVC_JUMPOINT_23_BD","subnet":"172.20.10.0/24","anycast_gateway":"172.20.10.1","vrf_aci_name":"PSVC_JUMPOINT_VRF","tenant":"SAQ_PRD_FW-JAUNE","vlan_id":23,"id":83}, 
 {"bd":"PSVC_OUTILSSECURITE_14_BD","subnet":"172.20.11.0/24","anycast_gateway":"172.20.11.1","vrf_aci_name":"PSVC_OUTILSSECURITE_VRF","tenant":"SAQ_PRD_FW-JAUNE","vlan_id":14,"id":84}, 
 {"bd":"PSVC_SECAUTH_940_BD","subnet":"172.20.67.0/24","anycast_gateway":"172.20.67.1","vrf_aci_name":"PSVC_SECAUTH_VRF","tenant":"SAQ_PRD_FW-JAUNE","vlan_id":940,"id":85}, 
 {"bd":"PSVC_SECDETECT_938_BD","subnet":"172.20.65.0/24","anycast_gateway":"172.20.65.1","vrf_aci_name":"PSVC_SECDETECT_VRF","tenant":"SAQ_PRD_FW-JAUNE","vlan_id":938,"id":86}, 
 {"bd":"PSVC_SECPROTEC_939_BD","subnet":"172.20.66.0/24","anycast_gateway":"172.20.66.1","vrf_aci_name":"PSVC_SECPROTEC_VRF","tenant":"SAQ_PRD_FW-JAUNE","vlan_id":939,"id":87}, 
 {"bd":"PSVC_SURVEILLANCE_944_BD","subnet":"172.20.71.0/24","anycast_gateway":"172.20.71.1","vrf_aci_name":"PSVC_SURVEILLANCE_VRF","tenant":"SAQ_PRD_FW-JAUNE","vlan_id":944,"id":88}, 
 {"bd":"PSVC_UTILITAIRES_32_BD","subnet":"172.20.17.0/24","anycast_gateway":"172.20.17.1","vrf_aci_name":"PSVC_UTILITAIRES_VRF","tenant":"SAQ_PRD_FW-JAUNE","vlan_id":32,"id":89}, 
 {"bd":"PSVC_VMASR_16_BD","subnet":"172.20.16.0/24","anycast_gateway":"172.20.16.1","vrf_aci_name":"PSVC_VMASR_VRF","tenant":"SAQ_PRD_FW-JAUNE","vlan_id":16,"id":90}, 
 {"bd":"PSVC_VMORACLE_27_BD","subnet":"172.20.15.0/24","anycast_gateway":"172.20.15.1","vrf_aci_name":"PSVC_VMORACLE_VRF","tenant":"SAQ_PRD_FW-JAUNE","vlan_id":27,"id":91}, 
 {"bd":"PSVC_WEBMETHOD_941_BD","subnet":"172.20.68.0/24","anycast_gateway":"172.20.68.1","vrf_aci_name":"PSVC_WEBMETHOD_VRF","tenant":"SAQ_PRD_FW-JAUNE","vlan_id":941,"id":92}, 
 {"bd":"DEXT_OCINGEGR1_836_BD","subnet":"192.168.102.0/24","anycast_gateway":"192.168.102.1","vrf_aci_name":"DEXT_OCINGEGR1_VRF","tenant":"SAQ_PRD_FW-OPENSHIFT","vlan_id":836,"id":93}, 
 {"bd":"DEXT_OCMASTER1_852_BD","subnet":"192.168.124.0/24","anycast_gateway":"192.168.124.1","vrf_aci_name":"DEXT_OCMASTER1_VRF","tenant":"SAQ_PRD_FW-OPENSHIFT","vlan_id":852,"id":94}, 
 {"bd":"DEXT_OCMGMT1_835_BD","subnet":"192.168.101.0/24","anycast_gateway":"192.168.101.1","vrf_aci_name":"DEXT_OCMGMT1_VRF","tenant":"SAQ_PRD_FW-OPENSHIFT","vlan_id":835,"id":95}, 
 {"bd":"LEXT_OCINGEGR1_832_BD","subnet":"192.168.98.0/24","anycast_gateway":"192.168.98.1","vrf_aci_name":"LEXT_OCINGEGR1_VRF","tenant":"SAQ_PRD_FW-OPENSHIFT","vlan_id":832,"id":96}, 
 {"bd":"LEXT_OCINGEGR2_833_BD","subnet":"192.168.99.0/24","anycast_gateway":"192.168.99.1","vrf_aci_name":"LEXT_OCINGEGR2_VRF","tenant":"SAQ_PRD_FW-OPENSHIFT","vlan_id":833,"id":97}, 
 {"bd":"PEXT_OCINGEGR1_843_BD","subnet":"192.168.114.0/24","anycast_gateway":"192.168.114.1","vrf_aci_name":"PEXT_OCINGEGR1_VRF","tenant":"SAQ_PRD_FW-OPENSHIFT","vlan_id":843,"id":98}, 
 {"bd":"PEXT_OCINGEGR2_848_BD","subnet":"192.168.120.0/24","anycast_gateway":"192.168.120.1","vrf_aci_name":"PEXT_OCINGEGR2_VRF","tenant":"SAQ_PRD_FW-OPENSHIFT","vlan_id":848,"id":99}, 
 {"bd":"PEXT_OCMASTER1_850_BD","subnet":"192.168.122.0/24","anycast_gateway":"192.168.122.1","vrf_aci_name":"PEXT_OCMASTER1_VRF","tenant":"SAQ_PRD_FW-OPENSHIFT","vlan_id":850,"id":100}, 
 {"bd":"PEXT_OCMGMT1_838_BD","subnet":"192.168.104.0/24","anycast_gateway":"192.168.104.1","vrf_aci_name":"PEXT_OCMGMT1_VRF","tenant":"SAQ_PRD_FW-OPENSHIFT","vlan_id":838,"id":101}, 
 {"bd":"QEXT_OCINGEGR1_840_BD","subnet":"192.168.108.0/24","anycast_gateway":"192.168.108.1","vrf_aci_name":"QEXT_OCINGEGR1_VRF","tenant":"SAQ_PRD_FW-OPENSHIFT","vlan_id":840,"id":102}, 
 {"bd":"PAPP_BDCRIT_V_576_BD","subnet":"172.27.65.0/24","anycast_gateway":"172.27.65.1","vrf_aci_name":"PAPP_BDCRIT_V_VRF","tenant":"SAQ_PRD_FW-VERTE","vlan_id":576,"id":103}, 
 {"bd":"PAPP_STDAPP1_V_574_BD","subnet":"172.27.32.0/24","anycast_gateway":"172.27.32.1","vrf_aci_name":"PAPP_STDAPP1_V_VRF","tenant":"SAQ_PRD_FW-VERTE","vlan_id":574,"id":104}, 
 {"bd":"PAPP_STDBD1_V_575_BD","subnet":"172.27.64.0/24","anycast_gateway":"172.27.64.1","vrf_aci_name":"PAPP_STDBD1_V_VRF","tenant":"SAQ_PRD_FW-VERTE","vlan_id":575,"id":105}, 
 {"bd":"PAPP_STDWEB1_V_573_BD","subnet":"172.27.0.0/24","anycast_gateway":"172.27.0.1","vrf_aci_name":"PAPP_STDWEB1_V_VRF","tenant":"SAQ_PRD_FW-VERTE","vlan_id":573,"id":106}, 
 {"bd":"MONTAGE_LINUX_614_BD","subnet":"172.26.239.0/24","anycast_gateway":"172.26.239.65","vrf_aci_name":"MONTAGE_LINUX_VRF","tenant":"SAQ_QA_FW-BLANC","vlan_id":614,"id":107}, 
 {"bd":"PSVC_MONTAGELINUX_606_BD","subnet":"172.26.176.0/24","anycast_gateway":"172.26.176.193","vrf_aci_name":"PSVC_MONTAGELINUX_VRF","tenant":"SAQ_QA_FW-BLANC","vlan_id":606,"id":108}, 
 {"bd":"QADM_GLOBALE_1120_BD","subnet":"172.16.12.0/24","anycast_gateway":"172.16.12.1","vrf_aci_name":"QADM_GLOBALE_VRF","tenant":"SAQ_QA_FW-BLANC","vlan_id":1120,"id":109}, 
 {"bd":"QAPP_CVBD_1112_BD","subnet":"172.16.11.0/24","anycast_gateway":"172.16.11.1","vrf_aci_name":"QAPP_CVBD_VRF","tenant":"SAQ_QA_FW-BLANC","vlan_id":1112,"id":110}, 
 {"bd":"QAPP_GLOBALE_1108_BD","subnet":"172.16.7.0/24","anycast_gateway":"172.16.7.1","vrf_aci_name":"QAPP_GLOBALE_VRF","tenant":"SAQ_QA_FW-BLANC","vlan_id":1108,"id":111}, 
 {"bd":"QAPP_OWBD_1102_BD","subnet":"172.16.3.0/24","anycast_gateway":"172.16.3.1","vrf_aci_name":"QAPP_OWBD_VRF","tenant":"SAQ_QA_FW-BLANC","vlan_id":1102,"id":112}, 
 {"bd":"QAPP_STDAPP1_B_1165_BD","subnet":"172.16.65.0/24","anycast_gateway":"172.16.65.1","vrf_aci_name":"QAPP_STDAPP1_B_VRF","tenant":"SAQ_QA_FW-BLANC","vlan_id":1165,"id":113}, 
 {"bd":"QAPP_STDWEB1_B_1133_BD","subnet":"172.16.33.0/24","anycast_gateway":"172.16.33.1","vrf_aci_name":"QAPP_STDWEB1_B_VRF","tenant":"SAQ_QA_FW-BLANC","vlan_id":1133,"id":114}, 
 {"bd":"QAPP_WINDOWS_512_BD","subnet":"172.26.212.0/24","anycast_gateway":"172.26.212.1","vrf_aci_name":"QAPP_WINDOWS_VRF","tenant":"SAQ_QA_FW-BLANC","vlan_id":512,"id":115}, 
 {"bd":"QBUR_VM_350_BD","subnet":"172.26.50.0/24","anycast_gateway":"172.26.50.1","vrf_aci_name":"QBUR_VM_VRF","tenant":"SAQ_QA_FW-BLANC","vlan_id":350,"id":116}, 
 {"bd":"QGES_GLOBALE_1100_BD","subnet":"172.16.1.0/24","anycast_gateway":"172.16.1.1","vrf_aci_name":"QGES_GLOBALE_VRF","tenant":"SAQ_QA_FW-BLANC","vlan_id":1100,"id":117}, 
 {"bd":"QSVC_GLOBALE_1105_BD","subnet":"172.16.6.0/24","anycast_gateway":"172.16.6.1","vrf_aci_name":"QSVC_GLOBALE_VRF","tenant":"SAQ_QA_FW-BLANC","vlan_id":1105,"id":118}, 
 {"bd":"QAPP_OWAPP_1103_BD","subnet":"172.16.4.0/24","anycast_gateway":"172.16.4.1","vrf_aci_name":"QAPP_OWAPP_VRF","tenant":"SAQ_QA_FW-QA","vlan_id":1103,"id":119}, 
 {"bd":"QAPP_PDVPPR_B_1134_BD","subnet":"172.16.34.0/24","anycast_gateway":"172.16.34.1","vrf_aci_name":"QAPP_PDVPPR_B_VRF","tenant":"SAQ_QA_FW-QA","vlan_id":1134,"id":120}, 
 {"bd":"QAPP_STDAPP1_V_1164_BD","subnet":"172.16.64.0/24","anycast_gateway":"172.16.64.1","vrf_aci_name":"QAPP_STDAPP1_V_VRF","tenant":"SAQ_QA_FW-QA","vlan_id":1164,"id":121}, 
 {"bd":"QAPP_STDBD1_B_1197_BD","subnet":"172.16.97.0/24","anycast_gateway":"172.16.97.1","vrf_aci_name":"QAPP_STDBD1_B_VRF","tenant":"SAQ_QA_FW-QA","vlan_id":1197,"id":122}, 
 {"bd":"QAPP_STDBD1_J_1198_BD","subnet":"172.16.98.0/24","anycast_gateway":"172.16.98.1","vrf_aci_name":"QAPP_STDBD1_J_VRF","tenant":"SAQ_QA_FW-QA","vlan_id":1198,"id":123}, 
 {"bd":"QAPP_STDBD1_V_1196_BD","subnet":"172.16.96.0/24","anycast_gateway":"172.16.96.1","vrf_aci_name":"QAPP_STDBD1_V_VRF","tenant":"SAQ_QA_FW-QA","vlan_id":1196,"id":124}, 
 {"bd":"QAPP_STDWEB1_V_1132_BD","subnet":"172.16.32.0/24","anycast_gateway":"172.16.32.1","vrf_aci_name":"QAPP_STDWEB1_V_VRF","tenant":"SAQ_QA_FW-QA","vlan_id":1132,"id":125}, 
 {"bd":"QSVC_EDD_1128_BD","subnet":"172.16.14.0/24","anycast_gateway":"172.16.14.1","vrf_aci_name":"QSVC_EDD_VRF","tenant":"SAQ_QA_FW-QA","vlan_id":1128,"id":126}, 
 {"bd":"QSVC_ELK_1228_BD","subnet":"172.16.16.0/24","anycast_gateway":"172.16.16.1","vrf_aci_name":"QSVC_ELK_VRF","tenant":"SAQ_QA_FW-QA","vlan_id":1228,"id":127}, 
 {"bd":"QSVC_GESTIONUNIX_1231_BD","subnet":"172.16.19.0/24","anycast_gateway":"172.16.19.1","vrf_aci_name":"QSVC_GESTIONUNIX_VRF","tenant":"SAQ_QA_FW-QA","vlan_id":1231,"id":128}, 
 {"bd":"QSVC_SURVEILLANCE_1232_BD","subnet":"172.16.20.0/24","anycast_gateway":"172.16.20.1","vrf_aci_name":"QSVC_SURVEILLANCE_VRF","tenant":"SAQ_QA_FW-QA","vlan_id":1232,"id":129}, 
 {"bd":"QSVC_VMORACLE_1129_BD","subnet":"172.16.15.0/24","anycast_gateway":"172.16.15.1","vrf_aci_name":"QSVC_VMORACLE_VRF","tenant":"SAQ_QA_FW-QA","vlan_id":1129,"id":130}, 
 {"bd":"QSVC_WEBMETHOD_1122_BD","subnet":"172.16.13.0/24","anycast_gateway":"172.16.13.1","vrf_aci_name":"QSVC_WEBMETHOD_VRF","tenant":"SAQ_QA_FW-QA","vlan_id":1122,"id":131}, 
 {"bd":"DAPP_SQDCGLOBALE_1692_BD","subnet":"172.31.92.0/24","anycast_gateway":"172.31.92.1","vrf_aci_name":"DAPP_SQDCGLOBALE_VRF","tenant":"SQDC_DEV_FW-BLANC","vlan_id":1692,"id":132}, 
 {"bd":"DAPP_SQDCSTD1_B_1727_BD","subnet":"172.31.127.0/24","anycast_gateway":"172.31.127.1","vrf_aci_name":"DAPP_SQDCSTD1_B_VRF","tenant":"SQDC_DEV_FW-BLANC","vlan_id":1727,"id":133}, 
 {"bd":"DAPP_SQDCSTD2_B_1694_BD","subnet":"172.31.94.0/24","anycast_gateway":"172.31.94.1","vrf_aci_name":"DAPP_SQDCSTD2_B_VRF","tenant":"SQDC_DEV_FW-QA","vlan_id":1694,"id":135}, 
 {"bd":"MGES_SQDCGLOBALE_1608_BD","subnet":"172.31.8.0/24","anycast_gateway":"172.31.8.1","vrf_aci_name":"MGES_SQDCGLOBALE_VRF","tenant":"SQDC_PRD_FW-BLANC","vlan_id":1608,"id":136}, 
 {"bd":"MGES_SQDCJUMPPOINT_1609_BD","subnet":"172.31.9.0/24","anycast_gateway":"172.31.9.1","vrf_aci_name":"MGES_SQDCJUMPPOINT_VRF","tenant":"SQDC_PRD_FW-BLANC","vlan_id":1609,"id":137}, 
 {"bd":"PAPP_SQDCGLOBALE_1605_BD","subnet":"172.31.5.0/24","anycast_gateway":"172.31.5.1","vrf_aci_name":"PAPP_SQDCGLOBALE_VRF","tenant":"SQDC_PRD_FW-BLANC","vlan_id":1605,"id":138}, 
 {"bd":"PAPP_SQDCJDEAPP_1607_BD","subnet":"172.31.7.0/24","anycast_gateway":"172.31.7.1","vrf_aci_name":"PAPP_SQDCJDEAPP_VRF","tenant":"SQDC_PRD_FW-BLANC","vlan_id":1607,"id":139}, 
 {"bd":"PAPP_SQDCJDEWEB_1606_BD","subnet":"172.31.6.0/24","anycast_gateway":"172.31.6.1","vrf_aci_name":"PAPP_SQDCJDEWEB_VRF","tenant":"SQDC_PRD_FW-BLANC","vlan_id":1606,"id":140}, 
 {"bd":"PSVC_SQDCBACKUP_1626_BD","subnet":"172.31.26.0/24","anycast_gateway":"172.31.26.1","vrf_aci_name":"PSVC_SQDCBACKUP_VRF","tenant":"SQDC_PRD_FW-BLANC","vlan_id":1626,"id":141}, 
 {"bd":"PSVC_SQDCTELCOMGMT_1631_BD","subnet":"172.31.31.0/24","anycast_gateway":"172.31.31.1","vrf_aci_name":"PSVC_SQDCTELCOMGMT_VRF","tenant":"SQDC_PRD_FW-BLANC","vlan_id":1631,"id":142}, 
 {"bd":"PSVC_SQDCUNIX_1603_BD","subnet":"172.31.3.0/24","anycast_gateway":"172.31.3.1","vrf_aci_name":"PSVC_SQDCUNIX_VRF","tenant":"SQDC_PRD_FW-BLANC","vlan_id":1603,"id":143}, 
 {"bd":"PSVC_SQDCWINDOWS_1602_BD","subnet":"172.31.2.0/24","anycast_gateway":"172.31.2.1","vrf_aci_name":"PSVC_SQDCWINDOWS_VRF","tenant":"SQDC_PRD_FW-BLANC","vlan_id":1602,"id":144}, 
 {"bd":"PAPP_SQDCJDE92APP_1611_BD","subnet":"172.31.11.0/24","anycast_gateway":"172.31.11.1","vrf_aci_name":"PAPP_SQDCJDE92APP_VRF","tenant":"SQDC_PRD_FW-BLEU","vlan_id":1611,"id":145}, 
 {"bd":"PAPP_SQDCJDE92WEB_1610_BD","subnet":"172.31.10.0/24","anycast_gateway":"172.31.10.1","vrf_aci_name":"PAPP_SQDCJDE92WEB_VRF","tenant":"SQDC_PRD_FW-BLEU","vlan_id":1610,"id":146}, 
 {"bd":"PAPP_SQDCPDVAPP1_B_1793_BD","subnet":"172.31.193.0/24","anycast_gateway":"172.31.193.1","vrf_aci_name":"PAPP_SQDCPDVAPP1_B_VRF","tenant":"SQDC_PRD_FW-BLEU","vlan_id":1793,"id":147}, 
 {"bd":"PDMZ_SQDC_1760_BD","subnet":"172.31.160.0/24","anycast_gateway":"172.31.160.1","vrf_aci_name":"PDMZ_SQDC_VRF","tenant":"SQDC_PRD_FW-DMZ","vlan_id":1760,"id":148}, 
 {"bd":"PSVC_SQDCAD_1601_BD","subnet":"172.31.1.0/24","anycast_gateway":"172.31.1.1","vrf_aci_name":"PSVC_SQDCAD_VRF","tenant":"SQDC_PRD_FW-JAUNE","vlan_id":1601,"id":149}, 
 {"bd":"PSVC_SQDCADRODC_1604_BD","subnet":"172.31.4.0/24","anycast_gateway":"172.31.4.1","vrf_aci_name":"PSVC_SQDCADRODC_VRF","tenant":"SQDC_PRD_FW-JAUNE","vlan_id":1604,"id":150}, 
 {"bd":"PSVC_SQDCJUMPPOINT_1619_BD","subnet":"172.31.19.0/24","anycast_gateway":"172.31.19.1","vrf_aci_name":"PSVC_SQDCJUMPPOINT_VRF","tenant":"SQDC_PRD_FW-JAUNE","vlan_id":1619,"id":151}, 
 {"bd":"PSVC_SQDCSERVICES_1620_BD","subnet":"172.31.20.0/24","anycast_gateway":"172.31.20.1","vrf_aci_name":"PSVC_SQDCSERVICES_VRF","tenant":"SQDC_PRD_FW-JAUNE","vlan_id":1620,"id":152}, 
 {"bd":"PSVC_SQDCWEBMETHOD_1612_BD","subnet":"172.31.12.0/24","anycast_gateway":"172.31.12.1","vrf_aci_name":"PSVC_SQDCWEBMETHOD_VRF","tenant":"SQDC_PRD_FW-JAUNE","vlan_id":1612,"id":153}, 
 {"bd":"PAPP_SQDCSTDAPP1_V_1614_BD","subnet":"172.31.14.0/24","anycast_gateway":"172.31.14.1","vrf_aci_name":"PAPP_SQDCSTDAPP1_V_VRF","tenant":"SQDC_PRD_FW-VERTE","vlan_id":1614,"id":154}, 
 {"bd":"QAPP_SQDCGLOBALE_1664_BD","subnet":"172.31.64.0/24","anycast_gateway":"172.31.64.1","vrf_aci_name":"QAPP_SQDCGLOBALE_VRF","tenant":"SQDC_QA_FW-BLANC","vlan_id":1664,"id":155}, 
 {"bd":"QAPP_SQDCJDEAPP_1666_BD","subnet":"172.31.66.0/24","anycast_gateway":"172.31.66.1","vrf_aci_name":"QAPP_SQDCJDEAPP_VRF","tenant":"SQDC_QA_FW-BLANC","vlan_id":1666,"id":156}, 
 {"bd":"QAPP_SQDCJDEWEB_1665_BD","subnet":"172.31.65.0/24","anycast_gateway":"172.31.65.1","vrf_aci_name":"QAPP_SQDCJDEWEB_VRF","tenant":"SQDC_QA_FW-BLANC","vlan_id":1665,"id":157}, 
 {"bd":"QAPP_SQDCSTDBD1_B_1691_BD","subnet":"172.31.91.0/24","anycast_gateway":"172.31.91.1","vrf_aci_name":"QAPP_SQDCSTDBD1_B_VRF","tenant":"SQDC_QA_FW-BLANC","vlan_id":1691,"id":158}, 
 {"bd":"QAPP_SQDCSTDWEB1_B_1689_BD","subnet":"172.31.89.0/24","anycast_gateway":"172.31.89.1","vrf_aci_name":"QAPP_SQDCSTDWEB1_B_VRF","tenant":"SQDC_QA_FW-BLANC","vlan_id":1689,"id":159}, 
 {"bd":"QAPP_SQDCJDE92APP_1671_BD","subnet":"172.31.71.0/24","anycast_gateway":"172.31.71.1","vrf_aci_name":"QAPP_SQDCJDE92APP_VRF","tenant":"SQDC_QA_FW-QA","vlan_id":1671,"id":160}, 
 {"bd":"QAPP_SQDCJDE92WEB_1670_BD","subnet":"172.31.70.0/24","anycast_gateway":"172.31.70.1","vrf_aci_name":"QAPP_SQDCJDE92WEB_VRF","tenant":"SQDC_QA_FW-QA","vlan_id":1670,"id":161}, 
 {"bd":"QAPP_SQDCPPR_B_1685_BD","subnet":"172.31.85.0/24","anycast_gateway":"172.31.85.1","vrf_aci_name":"QAPP_SQDCPPR_B_VRF","tenant":"SQDC_QA_FW-QA","vlan_id":1685,"id":162}, 
 {"bd":"QAPP_SQDCSTD1_J_1684_BD","subnet":"172.31.84.0/24","anycast_gateway":"172.31.84.1","vrf_aci_name":"QAPP_SQDCSTD1_J_VRF","tenant":"SQDC_QA_FW-QA","vlan_id":1684,"id":163}, 
 {"bd":"QAPP_SQDCSTDAPP1_B_1690_BD","subnet":"172.31.90.0/24","anycast_gateway":"172.31.90.1","vrf_aci_name":"QAPP_SQDCSTDAPP1_B_VRF","tenant":"SQDC_QA_FW-QA","vlan_id":1690,"id":164}, 
 {"bd":"QDMZ_SQDC_1776_BD","subnet":"172.31.176.0/24","anycast_gateway":"172.31.176.1","vrf_aci_name":"QDMZ_SQDC_VRF","tenant":"SQDC_QA_FW-QA","vlan_id":1776,"id":165}, 
 {"bd":"QSVC_SQDCJUMPPOINT_1672_BD","subnet":"172.31.72.0/24","anycast_gateway":"172.31.72.1","vrf_aci_name":"QSVC_SQDCJUMPPOINT_VRF","tenant":"SQDC_QA_FW-QA","vlan_id":1672,"id":166}, 
 {"bd":"QSVC_SQDCWEBMETHOD_1669_BD","subnet":"172.31.69.0/24","anycast_gateway":"172.31.69.1","vrf_aci_name":"QSVC_SQDCWEBMETHOD_VRF","tenant":"SQDC_QA_FW-QA","vlan_id":1669,"id":167}]