[{"vrf_name":"DAPP_GLOBALE","vrf_aci_name":"DAPP_GLOBALE_VRF","bgp_asn_aci":64512,"l3out_name":"DAPP_GLOBALE_L3OUT","tenant":"SAQ_DEV_FW-BLANC","siteid":"DAP","id":1}, 
 {"vrf_name":"DAPP_OW","vrf_aci_name":"DAPP_OW_VRF","bgp_asn_aci":64513,"l3out_name":"DAPP_OW_L3OUT","tenant":"SAQ_DEV_FW-BLANC","siteid":"DAP","id":2}, 
 {"vrf_name":"DGES_GLOBALE","vrf_aci_name":"DGES_GLOBALE_VRF","bgp_asn_aci":64514,"l3out_name":"DGES_GLOBALE_L3OUT","tenant":"SAQ_DEV_FW-BLANC","siteid":"DGE","id":3}, 
 {"vrf_name":"DAPP_STD1_B","vrf_aci_name":"DAPP_STD1_B_VRF","bgp_asn_aci":64515,"l3out_name":"DAPP_STD1_B_L3OUT","tenant":"SAQ_DEV_FW-QA","siteid":"DAP","id":4}, 
 {"vrf_name":"DAPP_STD1_J","vrf_aci_name":"DAPP_STD1_J_VRF","bgp_asn_aci":64516,"l3out_name":"DAPP_STD1_J_L3OUT","tenant":"SAQ_DEV_FW-QA","siteid":"DAP","id":5}, 
 {"vrf_name":"DMZ_808","vrf_aci_name":"DMZ_808_VRF","bgp_asn_aci":64517,"l3out_name":"DMZ_808_L3OUT","tenant":"SAQ_DMZ_FW-QA","siteid":"DMZ","id":6}, 
 {"vrf_name":"QDMZ_GLOBALE","vrf_aci_name":"QDMZ_GLOBALE_VRF","bgp_asn_aci":64518,"l3out_name":"QDMZ_GLOBALE_L3OUT","tenant":"SAQ_DMZ_FW-QA","siteid":"QDM","id":7}, 
 {"vrf_name":"QEXT_APPPUB","vrf_aci_name":"QEXT_APPPUB_VRF","bgp_asn_aci":64519,"l3out_name":"QEXT_APPPUB_L3OUT","tenant":"SAQ_DMZ_FW-QA","siteid":"QEX","id":8}, 
 {"vrf_name":"QEXT_BDPUB","vrf_aci_name":"QEXT_BDPUB_VRF","bgp_asn_aci":64520,"l3out_name":"QEXT_BDPUB_L3OUT","tenant":"SAQ_DMZ_FW-QA","siteid":"QEX","id":9}, 
 {"vrf_name":"QEXT_WEBPUB","vrf_aci_name":"QEXT_WEBPUB_VRF","bgp_asn_aci":64521,"l3out_name":"QEXT_WEBPUB_L3OUT","tenant":"SAQ_DMZ_FW-QA","siteid":"QEX","id":10}, 
 {"vrf_name":"ADMIN_TELCO","vrf_aci_name":"ADMIN_TELCO_VRF","bgp_asn_aci":64522,"l3out_name":"ADMIN_TELCO_L3OUT","tenant":"SAQ_PRD_FW-BLANC","siteid":"ADM","id":11}, 
 {"vrf_name":"ADMIN_TELEPHONIE","vrf_aci_name":"ADMIN_TELEPHONIE_VRF","bgp_asn_aci":64523,"l3out_name":"ADMIN_TELEPHONIE_L3OUT","tenant":"SAQ_PRD_FW-BLANC","siteid":"ADM","id":12}, 
 {"vrf_name":"ADMIN_UNIX","vrf_aci_name":"ADMIN_UNIX_VRF","bgp_asn_aci":64524,"l3out_name":"ADMIN_UNIX_L3OUT","tenant":"SAQ_PRD_FW-BLANC","siteid":"ADM","id":13}, 
 {"vrf_name":"ADMIN_WINDOWS","vrf_aci_name":"ADMIN_WINDOWS_VRF","bgp_asn_aci":64525,"l3out_name":"ADMIN_WINDOWS_L3OUT","tenant":"SAQ_PRD_FW-BLANC","siteid":"ADM","id":14}, 
 {"vrf_name":"ASSEMBLAGE_WINDOWS","vrf_aci_name":"ASSEMBLAGE_WINDOWS_VRF","bgp_asn_aci":64526,"l3out_name":"ASSEMBLAGE_WINDOWS_L3OUT","tenant":"SAQ_PRD_FW-BLANC","siteid":"ASS","id":15}, 
 {"vrf_name":"CDSWINDOWS","vrf_aci_name":"CDSWINDOWS_VRF","bgp_asn_aci":64527,"l3out_name":"CDSWINDOWS_L3OUT","tenant":"SAQ_PRD_FW-BLANC","siteid":"CDS","id":16}, 
 {"vrf_name":"ESX_MGMT","vrf_aci_name":"ESX_MGMT_VRF","bgp_asn_aci":64528,"l3out_name":"SMY_PROD_ADMIN_FOREST_L3OUT","tenant":"SAQ_PRD_FW-BLANC","siteid":"SMY","id":17}, 
 {"vrf_name":"GROUPE_TELECOM","vrf_aci_name":"GROUPE_TELECOM_VRF","bgp_asn_aci":64529,"l3out_name":"GROUPE_TELECOM_L3OUT","tenant":"SAQ_PRD_FW-BLANC","siteid":"GRO","id":18}, 
 {"vrf_name":"HERITAGE_1","vrf_aci_name":"HERITAGE_1_VRF","bgp_asn_aci":64530,"l3out_name":"HERITAGE_1_L3OUT","tenant":"SAQ_PRD_FW-BLANC","siteid":"HER","id":19}, 
 {"vrf_name":"HERITAGE_2","vrf_aci_name":"HERITAGE_2_VRF","bgp_asn_aci":64531,"l3out_name":"HERITAGE_2_L3OUT","tenant":"SAQ_PRD_FW-BLANC","siteid":"HER","id":20}, 
 {"vrf_name":"HERITAGE_3","vrf_aci_name":"HERITAGE_3_VRF","bgp_asn_aci":64532,"l3out_name":"HERITAGE_3_L3OUT","tenant":"SAQ_PRD_FW-BLANC","siteid":"HER","id":21}, 
 {"vrf_name":"IMPLECT","vrf_aci_name":"IMPLECT_VRF","bgp_asn_aci":64533,"l3out_name":"IMPLECT_L3OUT","tenant":"SAQ_PRD_FW-BLANC","siteid":"IMP","id":22}, 
 {"vrf_name":"LEXT_OCINGEGRAC01","vrf_aci_name":"LEXT_OCINGEGRAC01_VRF","bgp_asn_aci":64534,"l3out_name":"LEXT_OCINGEGRAC01_L3OUT","tenant":"SAQ_PRD_FW-BLANC","siteid":"LEX","id":23}, 
 {"vrf_name":"LEXT_OCINGEGRAC02","vrf_aci_name":"LEXT_OCINGEGRAC02_VRF","bgp_asn_aci":64535,"l3out_name":"LEXT_OCINGEGRAC02_L3OUT","tenant":"SAQ_PRD_FW-BLANC","siteid":"LEX","id":24}, 
 {"vrf_name":"LEXT_OCMGMTACI01","vrf_aci_name":"LEXT_OCMGMTACI01_VRF","bgp_asn_aci":64536,"l3out_name":"LEXT_OCMGMTACI01_L3OUT","tenant":"SAQ_PRD_FW-BLANC","siteid":"LEX","id":25}, 
 {"vrf_name":"MADM_ACCES","vrf_aci_name":"MADM_ACCES_VRF","bgp_asn_aci":64537,"l3out_name":"MADM_ACCES_L3OUT","tenant":"SAQ_PRD_FW-BLANC","siteid":"MAD","id":26}, 
 {"vrf_name":"MGES_GLOBALE","vrf_aci_name":"MGES_GLOBALE_VRF","bgp_asn_aci":64538,"l3out_name":"MGES_GLOBALE_L3OUT","tenant":"SAQ_PRD_FW-BLANC","siteid":"MGE","id":27}, 
 {"vrf_name":"MONTAGE_WINDOWS","vrf_aci_name":"MONTAGE_WINDOWS_VRF","bgp_asn_aci":64539,"l3out_name":"MONTAGE_WINDOWS_L3OUT","tenant":"SAQ_PRD_FW-BLANC","siteid":"MON","id":28}, 
 {"vrf_name":"NS_PROD__CORPO_VIP","vrf_aci_name":"NS_PROD__CORPO_VIP_VRF","bgp_asn_aci":64540,"l3out_name":"NS_PROD__CORPO_VIP_L3OUT","tenant":"SAQ_PRD_FW-BLANC","siteid":"NS_","id":29}, 
 {"vrf_name":"PADM_GLOBALE","vrf_aci_name":"PADM_GLOBALE_VRF","bgp_asn_aci":64541,"l3out_name":"PADM_GLOBALE_L3OUT","tenant":"SAQ_PRD_FW-BLANC","siteid":"PAD","id":30}, 
 {"vrf_name":"PAPP_BDSENS","vrf_aci_name":"PAPP_BDSENS_VRF","bgp_asn_aci":64542,"l3out_name":"PAPP_BDSENS_L3OUT","tenant":"SAQ_PRD_FW-BLANC","siteid":"PAP","id":31}, 
 {"vrf_name":"PAPP_GLOBALE","vrf_aci_name":"PAPP_GLOBALE_VRF","bgp_asn_aci":64543,"l3out_name":"PAPP_GLOBALE_L3OUT","tenant":"SAQ_PRD_FW-BLANC","siteid":"PAP","id":32}, 
 {"vrf_name":"PAPP_OWAPP","vrf_aci_name":"PAPP_OWAPP_VRF","bgp_asn_aci":64544,"l3out_name":"PAPP_OWAPP_L3OUT","tenant":"SAQ_PRD_FW-BLANC","siteid":"PAP","id":33}, 
 {"vrf_name":"PAPP_OWBD","vrf_aci_name":"PAPP_OWBD_VRF","bgp_asn_aci":64545,"l3out_name":"PAPP_OWBD_L3OUT","tenant":"SAQ_PRD_FW-BLANC","siteid":"PAP","id":34}, 
 {"vrf_name":"PAPP_PEMBD","vrf_aci_name":"PAPP_PEMBD_VRF","bgp_asn_aci":64546,"l3out_name":"PAPP_PEMBD_L3OUT","tenant":"SAQ_PRD_FW-BLANC","siteid":"PAP","id":35}, 
 {"vrf_name":"PAPP_STDAPP1","vrf_aci_name":"PAPP_STDAPP1_VRF","bgp_asn_aci":64547,"l3out_name":"PAPP_STDAPP1_L3OUT","tenant":"SAQ_PRD_FW-BLANC","siteid":"PAP","id":36}, 
 {"vrf_name":"PAPP_STDBD1","vrf_aci_name":"PAPP_STDBD1_VRF","bgp_asn_aci":64548,"l3out_name":"PAPP_STDBD1_L3OUT","tenant":"SAQ_PRD_FW-BLANC","siteid":"PAP","id":37}, 
 {"vrf_name":"PAPP_STDWEB1","vrf_aci_name":"PAPP_STDWEB1_VRF","bgp_asn_aci":64549,"l3out_name":"PAPP_STDWEB1_L3OUT","tenant":"SAQ_PRD_FW-BLANC","siteid":"PAP","id":38}, 
 {"vrf_name":"PAPP_WINDOWS","vrf_aci_name":"PAPP_WINDOWS_VRF","bgp_asn_aci":64550,"l3out_name":"PAPP_WINDOWS_L3OUT","tenant":"SAQ_PRD_FW-BLANC","siteid":"PAP","id":39}, 
 {"vrf_name":"PBUR_PTNOINTERNET","vrf_aci_name":"PBUR_PTNOINTERNET_VRF","bgp_asn_aci":64551,"l3out_name":"PBUR_PTNOINTERNET_L3OUT","tenant":"SAQ_PRD_FW-BLANC","siteid":"PBU","id":40}, 
 {"vrf_name":"PGES_GLOBALE","vrf_aci_name":"PGES_GLOBALE_VRF","bgp_asn_aci":64552,"l3out_name":"PGES_GLOBALE_L3OUT","tenant":"SAQ_PRD_FW-BLANC","siteid":"PGE","id":41}, 
 {"vrf_name":"PGES_IMMEUBLE","vrf_aci_name":"PGES_IMMEUBLE_VRF","bgp_asn_aci":64553,"l3out_name":"PGES_IMMEUBLE_L3OUT","tenant":"SAQ_PRD_FW-BLANC","siteid":"PGE","id":42}, 
 {"vrf_name":"PSEC_CONTROL","vrf_aci_name":"PSEC_CONTROL_VRF","bgp_asn_aci":64554,"l3out_name":"PSEC_CONTROL_L3OUT","tenant":"SAQ_PRD_FW-BLANC","siteid":"PSE","id":43}, 
 {"vrf_name":"PSEC_INFRAGESTION","vrf_aci_name":"PSEC_INFRAGESTION_VRF","bgp_asn_aci":64555,"l3out_name":"PSEC_INFRAGESTION_L3OUT","tenant":"SAQ_PRD_FW-BLANC","siteid":"PSE","id":44}, 
 {"vrf_name":"PSEC_WINDOWS","vrf_aci_name":"PSEC_WINDOWS_VRF","bgp_asn_aci":64556,"l3out_name":"PSEC_WINDOWS_L3OUT","tenant":"SAQ_PRD_FW-BLANC","siteid":"PSE","id":45}, 
 {"vrf_name":"PSVC_AUTH","vrf_aci_name":"PSVC_AUTH_VRF","bgp_asn_aci":64557,"l3out_name":"PSVC_AUTH_L3OUT","tenant":"SAQ_PRD_FW-BLANC","siteid":"PSV","id":46}, 
 {"vrf_name":"PSVC_BLEU2SAQ","vrf_aci_name":"PSVC_BLEU2SAQ_VRF","bgp_asn_aci":64558,"l3out_name":"PSVC_BLEU2SAQ_L3OUT","tenant":"SAQ_PRD_FW-BLANC","siteid":"PSV","id":47}, 
 {"vrf_name":"PSVC_GLOBALE","vrf_aci_name":"PSVC_GLOBALE_VRF","bgp_asn_aci":64559,"l3out_name":"PSVC_GLOBALE_L3OUT","tenant":"SAQ_PRD_FW-BLANC","siteid":"PSV","id":48}, 
 {"vrf_name":"PSVC_HUBDMZ","vrf_aci_name":"PSVC_HUBDMZ_VRF","bgp_asn_aci":64560,"l3out_name":"PSVC_HUBDMZ_L3OUT","tenant":"SAQ_PRD_FW-BLANC","siteid":"PSV","id":49}, 
 {"vrf_name":"PSVC_JAUNE2SAQ","vrf_aci_name":"PSVC_JAUNE2SAQ_VRF","bgp_asn_aci":64561,"l3out_name":"PSVC_JAUNE2SAQ_L3OUT","tenant":"SAQ_PRD_FW-BLANC","siteid":"PSV","id":50}, 
 {"vrf_name":"PSVC_LINUX2","vrf_aci_name":"PSVC_LINUX2_VRF","bgp_asn_aci":64562,"l3out_name":"PSVC_LINUX2_L3OUT","tenant":"SAQ_PRD_FW-BLANC","siteid":"PSV","id":51}, 
 {"vrf_name":"PSVC_OC2SAQ","vrf_aci_name":"PSVC_OC2SAQ_VRF","bgp_asn_aci":64563,"l3out_name":"PSVC_OC2SAQ_L3OUT","tenant":"SAQ_PRD_FW-BLANC","siteid":"PSV","id":52}, 
 {"vrf_name":"PSVC_SUCC2SAQ","vrf_aci_name":"PSVC_SUCC2SAQ_VRF","bgp_asn_aci":64564,"l3out_name":"PSVC_SUCC2SAQ_L3OUT","tenant":"SAQ_PRD_FW-BLANC","siteid":"PSV","id":53}, 
 {"vrf_name":"PSVC_TRUSTAD","vrf_aci_name":"PSVC_TRUSTAD_VRF","bgp_asn_aci":64565,"l3out_name":"PSVC_TRUSTAD_L3OUT","tenant":"SAQ_PRD_FW-BLANC","siteid":"PSV","id":54}, 
 {"vrf_name":"SAQ_SUNGUARD_SAN","vrf_aci_name":"SAQ_SUNGUARD_SAN_VRF","bgp_asn_aci":64566,"l3out_name":"SAQ_SUNGUARD_SAN_L3OUT","tenant":"SAQ_PRD_FW-BLANC","siteid":"SAQ","id":55}, 
 {"vrf_name":"SERVEURS_AIX","vrf_aci_name":"SERVEURS_AIX_VRF","bgp_asn_aci":64567,"l3out_name":"SERVEURS_AIX_L3OUT","tenant":"SAQ_PRD_FW-BLANC","siteid":"SER","id":56}, 
 {"vrf_name":"SERVEURS_BUR","vrf_aci_name":"SERVEURS_BUR_VRF","bgp_asn_aci":64568,"l3out_name":"SERVEURS_BUR_L3OUT","tenant":"SAQ_PRD_FW-BLANC","siteid":"SER","id":57}, 
 {"vrf_name":"STOCKAGE_CDM","vrf_aci_name":"STOCKAGE_CDM_VRF","bgp_asn_aci":64569,"l3out_name":"STOCKAGE_CDM_L3OUT","tenant":"SAQ_PRD_FW-BLANC","siteid":"STO","id":58}, 
 {"vrf_name":"TAPP_OW","vrf_aci_name":"TAPP_OW_VRF","bgp_asn_aci":64570,"l3out_name":"TAPP_OW_L3OUT","tenant":"SAQ_PRD_FW-BLANC","siteid":"TAP","id":59}, 
 {"vrf_name":"TELIP_GTW","vrf_aci_name":"TELIP_GTW_VRF","bgp_asn_aci":64571,"l3out_name":"TELIP_GTW_L3OUT","tenant":"SAQ_PRD_FW-BLANC","siteid":"TEL","id":60}, 
 {"vrf_name":"VSOP_DEV_CORPO","vrf_aci_name":"VSOP_DEV_CORPO_VRF","bgp_asn_aci":64572,"l3out_name":"VSOP_DEV_CORPO_L3OUT","tenant":"SAQ_PRD_FW-BLANC","siteid":"VSO","id":61}, 
 {"vrf_name":"VSOP_PROD_CORPO","vrf_aci_name":"VSOP_PROD_CORPO_VRF","bgp_asn_aci":64573,"l3out_name":"VSOP_PROD_CORPO_L3OUT","tenant":"SAQ_PRD_FW-BLANC","siteid":"VSO","id":62}, 
 {"vrf_name":"VSOP_QUALIF_CORPO","vrf_aci_name":"VSOP_QUALIF_CORPO_VRF","bgp_asn_aci":64574,"l3out_name":"VSOP_QUALIF_CORPO_L3OUT","tenant":"SAQ_PRD_FW-BLANC","siteid":"VSO","id":63}, 
 {"vrf_name":"PAPP_PDVAPP1_B","vrf_aci_name":"PAPP_PDVAPP1_B_VRF","bgp_asn_aci":64575,"l3out_name":"PAPP_PDVAPP1_B_L3OUT","tenant":"SAQ_PRD_FW-BLEU","siteid":"PAP","id":64}, 
 {"vrf_name":"PAPP_WMSAPP1_B","vrf_aci_name":"PAPP_WMSAPP1_B_VRF","bgp_asn_aci":64576,"l3out_name":"PAPP_WMSAPP1_B_L3OUT","tenant":"SAQ_PRD_FW-BLEU","siteid":"PAP","id":65}, 
 {"vrf_name":"PAPP_WMSBD1_B","vrf_aci_name":"PAPP_WMSBD1_B_VRF","bgp_asn_aci":64577,"l3out_name":"PAPP_WMSBD1_B_L3OUT","tenant":"SAQ_PRD_FW-BLEU","siteid":"PAP","id":66}, 
 {"vrf_name":"PAPP_WMSWEB1_B","vrf_aci_name":"PAPP_WMSWEB1_B_VRF","bgp_asn_aci":64578,"l3out_name":"PAPP_WMSWEB1_B_L3OUT","tenant":"SAQ_PRD_FW-BLEU","siteid":"PAP","id":67}, 
 {"vrf_name":"PAPP_PEMWAS","vrf_aci_name":"PAPP_PEMWAS_VRF","bgp_asn_aci":64579,"l3out_name":"PAPP_PEMWAS_L3OUT","tenant":"SAQ_PRD_FW-DMZ","siteid":"PAP","id":68}, 
 {"vrf_name":"PDMZ_SVC","vrf_aci_name":"PDMZ_SVC_VRF","bgp_asn_aci":64580,"l3out_name":"PDMZ_SVC_L3OUT","tenant":"SAQ_PRD_FW-DMZ","siteid":"PDM","id":69}, 
 {"vrf_name":"PEXT_APPPUB","vrf_aci_name":"PEXT_APPPUB_VRF","bgp_asn_aci":64581,"l3out_name":"PEXT_APPPUB_L3OUT","tenant":"SAQ_PRD_FW-DMZ","siteid":"PEX","id":70}, 
 {"vrf_name":"PEXT_PDPUB","vrf_aci_name":"PEXT_PDPUB_VRF","bgp_asn_aci":64582,"l3out_name":"PEXT_PDPUB_L3OUT","tenant":"SAQ_PRD_FW-DMZ","siteid":"PEX","id":71}, 
 {"vrf_name":"PEXT_WEBPUB","vrf_aci_name":"PEXT_WEBPUB_VRF","bgp_asn_aci":64583,"l3out_name":"PEXT_WEBPUB_L3OUT","tenant":"SAQ_PRD_FW-DMZ","siteid":"PEX","id":72}, 
 {"vrf_name":"PMDZ_GLOBALE","vrf_aci_name":"PMDZ_GLOBALE_VRF","bgp_asn_aci":64584,"l3out_name":"PMDZ_GLOBALE_L3OUT","tenant":"SAQ_PRD_FW-DMZ","siteid":"PMD","id":73}, 
 {"vrf_name":"PSVC_AD","vrf_aci_name":"PSVC_AD_VRF","bgp_asn_aci":64585,"l3out_name":"PSVC_AD_L3OUT","tenant":"SAQ_PRD_FW-JAUNE","siteid":"PSV","id":74}, 
 {"vrf_name":"PSVC_BD_J","vrf_aci_name":"PSVC_BD_J_VRF","bgp_asn_aci":64586,"l3out_name":"PSVC_BD_J_L3OUT","tenant":"SAQ_PRD_FW-JAUNE","siteid":"PSV","id":75}, 
 {"vrf_name":"PSVC_BUREAUTIQUE","vrf_aci_name":"PSVC_BUREAUTIQUE_VRF","bgp_asn_aci":64587,"l3out_name":"PSVC_BUREAUTIQUE_L3OUT","tenant":"SAQ_PRD_FW-JAUNE","siteid":"PSV","id":76}, 
 {"vrf_name":"PSVC_CERTIFICATS","vrf_aci_name":"PSVC_CERTIFICATS_VRF","bgp_asn_aci":64588,"l3out_name":"PSVC_CERTIFICATS_L3OUT","tenant":"SAQ_PRD_FW-JAUNE","siteid":"PSV","id":77}, 
 {"vrf_name":"PSVC_EDD","vrf_aci_name":"PSVC_EDD_VRF","bgp_asn_aci":64589,"l3out_name":"PSVC_EDD_L3OUT","tenant":"SAQ_PRD_FW-JAUNE","siteid":"PSV","id":78}, 
 {"vrf_name":"PSVC_ELK","vrf_aci_name":"PSVC_ELK_VRF","bgp_asn_aci":64590,"l3out_name":"PSVC_ELK_L3OUT","tenant":"SAQ_PRD_FW-JAUNE","siteid":"PSV","id":79}, 
 {"vrf_name":"PSVC_GESTIONUNIX","vrf_aci_name":"PSVC_GESTIONUNIX_VRF","bgp_asn_aci":64591,"l3out_name":"PSVC_GESTIONUNIX_L3OUT","tenant":"SAQ_PRD_FW-JAUNE","siteid":"PSV","id":80}, 
 {"vrf_name":"PSVC_HUBAD","vrf_aci_name":"PSVC_HUBAD_VRF","bgp_asn_aci":64592,"l3out_name":"PSVC_HUBAD_L3OUT","tenant":"SAQ_PRD_FW-JAUNE","siteid":"PSV","id":81}, 
 {"vrf_name":"PSVC_JDEFATSAQ","vrf_aci_name":"PSVC_JDEFATSAQ_VRF","bgp_asn_aci":64593,"l3out_name":"PSVC_JDEFATSAQ_L3OUT","tenant":"SAQ_PRD_FW-JAUNE","siteid":"PSV","id":82}, 
 {"vrf_name":"PSVC_JUMPOINT","vrf_aci_name":"PSVC_JUMPOINT_VRF","bgp_asn_aci":64594,"l3out_name":"PSVC_JUMPOINT_L3OUT","tenant":"SAQ_PRD_FW-JAUNE","siteid":"PSV","id":83}, 
 {"vrf_name":"PSVC_OUTILSSECURITE","vrf_aci_name":"PSVC_OUTILSSECURITE_VRF","bgp_asn_aci":64595,"l3out_name":"PSVC_OUTILSSECURITE_L3OUT","tenant":"SAQ_PRD_FW-JAUNE","siteid":"PSV","id":84}, 
 {"vrf_name":"PSVC_SECAUTH","vrf_aci_name":"PSVC_SECAUTH_VRF","bgp_asn_aci":64596,"l3out_name":"PSVC_SECAUTH_L3OUT","tenant":"SAQ_PRD_FW-JAUNE","siteid":"PSV","id":85}, 
 {"vrf_name":"PSVC_SECDETECT","vrf_aci_name":"PSVC_SECDETECT_VRF","bgp_asn_aci":64597,"l3out_name":"PSVC_SECDETECT_L3OUT","tenant":"SAQ_PRD_FW-JAUNE","siteid":"PSV","id":86}, 
 {"vrf_name":"PSVC_SECPROTEC","vrf_aci_name":"PSVC_SECPROTEC_VRF","bgp_asn_aci":64598,"l3out_name":"PSVC_SECPROTEC_L3OUT","tenant":"SAQ_PRD_FW-JAUNE","siteid":"PSV","id":87}, 
 {"vrf_name":"PSVC_SURVEILLANCE","vrf_aci_name":"PSVC_SURVEILLANCE_VRF","bgp_asn_aci":64599,"l3out_name":"PSVC_SURVEILLANCE_L3OUT","tenant":"SAQ_PRD_FW-JAUNE","siteid":"PSV","id":88}, 
 {"vrf_name":"PSVC_UTILITAIRES","vrf_aci_name":"PSVC_UTILITAIRES_VRF","bgp_asn_aci":64600,"l3out_name":"PSVC_UTILITAIRES_L3OUT","tenant":"SAQ_PRD_FW-JAUNE","siteid":"PSV","id":89}, 
 {"vrf_name":"PSVC_VMASR","vrf_aci_name":"PSVC_VMASR_VRF","bgp_asn_aci":64601,"l3out_name":"PSVC_VMASR_L3OUT","tenant":"SAQ_PRD_FW-JAUNE","siteid":"PSV","id":90}, 
 {"vrf_name":"PSVC_VMORACLE","vrf_aci_name":"PSVC_VMORACLE_VRF","bgp_asn_aci":64602,"l3out_name":"PSVC_VMORACLE_L3OUT","tenant":"SAQ_PRD_FW-JAUNE","siteid":"PSV","id":91}, 
 {"vrf_name":"PSVC_WEBMETHOD","vrf_aci_name":"PSVC_WEBMETHOD_VRF","bgp_asn_aci":64603,"l3out_name":"PSVC_WEBMETHOD_L3OUT","tenant":"SAQ_PRD_FW-JAUNE","siteid":"PSV","id":92}, 
 {"vrf_name":"DEXT_OCINGEGR1","vrf_aci_name":"DEXT_OCINGEGR1_VRF","bgp_asn_aci":64604,"l3out_name":"DEXT_OCINGEGR1_L3OUT","tenant":"SAQ_PRD_FW-OPENSHIFT","siteid":"DEX","id":93}, 
 {"vrf_name":"DEXT_OCMASTER1","vrf_aci_name":"DEXT_OCMASTER1_VRF","bgp_asn_aci":64605,"l3out_name":"DEXT_OCMASTER1_L3OUT","tenant":"SAQ_PRD_FW-OPENSHIFT","siteid":"DEX","id":94}, 
 {"vrf_name":"DEXT_OCMGMT1","vrf_aci_name":"DEXT_OCMGMT1_VRF","bgp_asn_aci":64606,"l3out_name":"DEXT_OCMGMT1_L3OUT","tenant":"SAQ_PRD_FW-OPENSHIFT","siteid":"DEX","id":95}, 
 {"vrf_name":"LEXT_OCINGEGR1","vrf_aci_name":"LEXT_OCINGEGR1_VRF","bgp_asn_aci":64607,"l3out_name":"LEXT_OCINGEGR1_L3OUT","tenant":"SAQ_PRD_FW-OPENSHIFT","siteid":"LEX","id":96}, 
 {"vrf_name":"LEXT_OCINGEGR2","vrf_aci_name":"LEXT_OCINGEGR2_VRF","bgp_asn_aci":64608,"l3out_name":"LEXT_OCINGEGR2_L3OUT","tenant":"SAQ_PRD_FW-OPENSHIFT","siteid":"LEX","id":97}, 
 {"vrf_name":"PEXT_OCINGEGR1","vrf_aci_name":"PEXT_OCINGEGR1_VRF","bgp_asn_aci":64609,"l3out_name":"PEXT_OCINGEGR1_L3OUT","tenant":"SAQ_PRD_FW-OPENSHIFT","siteid":"PEX","id":98}, 
 {"vrf_name":"PEXT_OCINGEGR2","vrf_aci_name":"PEXT_OCINGEGR2_VRF","bgp_asn_aci":64610,"l3out_name":"PEXT_OCINGEGR2_L3OUT","tenant":"SAQ_PRD_FW-OPENSHIFT","siteid":"PEX","id":99}, 
 {"vrf_name":"PEXT_OCMASTER1","vrf_aci_name":"PEXT_OCMASTER1_VRF","bgp_asn_aci":64611,"l3out_name":"PEXT_OCMASTER1_L3OUT","tenant":"SAQ_PRD_FW-OPENSHIFT","siteid":"PEX","id":100}, 
 {"vrf_name":"PEXT_OCMGMT1","vrf_aci_name":"PEXT_OCMGMT1_VRF","bgp_asn_aci":64612,"l3out_name":"PEXT_OCMGMT1_L3OUT","tenant":"SAQ_PRD_FW-OPENSHIFT","siteid":"PEX","id":101}, 
 {"vrf_name":"QEXT_OCINGEGR1","vrf_aci_name":"QEXT_OCINGEGR1_VRF","bgp_asn_aci":64613,"l3out_name":"QEXT_OCINGEGR1_L3OUT","tenant":"SAQ_PRD_FW-OPENSHIFT","siteid":"QEX","id":102}, 
 {"vrf_name":"PAPP_BDCRIT_V","vrf_aci_name":"PAPP_BDCRIT_V_VRF","bgp_asn_aci":64614,"l3out_name":"PAPP_BDCRIT_V_L3OUT","tenant":"SAQ_PRD_FW-VERTE","siteid":"PAP","id":103}, 
 {"vrf_name":"PAPP_STDAPP1_V","vrf_aci_name":"PAPP_STDAPP1_V_VRF","bgp_asn_aci":64615,"l3out_name":"PAPP_STDAPP1_V_L3OUT","tenant":"SAQ_PRD_FW-VERTE","siteid":"PAP","id":104}, 
 {"vrf_name":"PAPP_STDBD1_V","vrf_aci_name":"PAPP_STDBD1_V_VRF","bgp_asn_aci":64616,"l3out_name":"PAPP_STDBD1_V_L3OUT","tenant":"SAQ_PRD_FW-VERTE","siteid":"PAP","id":105}, 
 {"vrf_name":"PAPP_STDWEB1_V","vrf_aci_name":"PAPP_STDWEB1_V_VRF","bgp_asn_aci":64617,"l3out_name":"PAPP_STDWEB1_V_L3OUT","tenant":"SAQ_PRD_FW-VERTE","siteid":"PAP","id":106}, 
 {"vrf_name":"MONTAGE_LINUX","vrf_aci_name":"MONTAGE_LINUX_VRF","bgp_asn_aci":64618,"l3out_name":"MONTAGE_LINUX_L3OUT","tenant":"SAQ_QA_FW-BLANC","siteid":"MON","id":107}, 
 {"vrf_name":"PSVC_MONTAGELINUX","vrf_aci_name":"PSVC_MONTAGELINUX_VRF","bgp_asn_aci":64619,"l3out_name":"PSVC_MONTAGELINUX_L3OUT","tenant":"SAQ_QA_FW-BLANC","siteid":"PSV","id":108}, 
 {"vrf_name":"QADM_GLOBALE","vrf_aci_name":"QADM_GLOBALE_VRF","bgp_asn_aci":64620,"l3out_name":"QADM_GLOBALE_L3OUT","tenant":"SAQ_QA_FW-BLANC","siteid":"QAD","id":109}, 
 {"vrf_name":"QAPP_CVBD","vrf_aci_name":"QAPP_CVBD_VRF","bgp_asn_aci":64621,"l3out_name":"QAPP_CVBD_L3OUT","tenant":"SAQ_QA_FW-BLANC","siteid":"QAP","id":110}, 
 {"vrf_name":"QAPP_GLOBALE","vrf_aci_name":"QAPP_GLOBALE_VRF","bgp_asn_aci":64622,"l3out_name":"QAPP_GLOBALE_L3OUT","tenant":"SAQ_QA_FW-BLANC","siteid":"QAP","id":111}, 
 {"vrf_name":"QAPP_OWBD","vrf_aci_name":"QAPP_OWBD_VRF","bgp_asn_aci":64623,"l3out_name":"QAPP_OWBD_L3OUT","tenant":"SAQ_QA_FW-BLANC","siteid":"QAP","id":112}, 
 {"vrf_name":"QAPP_STDAPP1_B","vrf_aci_name":"QAPP_STDAPP1_B_VRF","bgp_asn_aci":64624,"l3out_name":"QAPP_STDAPP1_B_L3OUT","tenant":"SAQ_QA_FW-BLANC","siteid":"QAP","id":113}, 
 {"vrf_name":"QAPP_STDWEB1_B","vrf_aci_name":"QAPP_STDWEB1_B_VRF","bgp_asn_aci":64625,"l3out_name":"QAPP_STDWEB1_B_L3OUT","tenant":"SAQ_QA_FW-BLANC","siteid":"QAP","id":114}, 
 {"vrf_name":"QAPP_WINDOWS","vrf_aci_name":"QAPP_WINDOWS_VRF","bgp_asn_aci":64626,"l3out_name":"QAPP_WINDOWS_L3OUT","tenant":"SAQ_QA_FW-BLANC","siteid":"QAP","id":115}, 
 {"vrf_name":"QBUR_VM","vrf_aci_name":"QBUR_VM_VRF","bgp_asn_aci":64627,"l3out_name":"QBUR_VM_L3OUT","tenant":"SAQ_QA_FW-BLANC","siteid":"QBU","id":116}, 
 {"vrf_name":"QGES_GLOBALE","vrf_aci_name":"QGES_GLOBALE_VRF","bgp_asn_aci":64628,"l3out_name":"QGES_GLOBALE_L3OUT","tenant":"SAQ_QA_FW-BLANC","siteid":"QGE","id":117}, 
 {"vrf_name":"QSVC_GLOBALE","vrf_aci_name":"QSVC_GLOBALE_VRF","bgp_asn_aci":64629,"l3out_name":"QSVC_GLOBALE_L3OUT","tenant":"SAQ_QA_FW-BLANC","siteid":"QSV","id":118}, 
 {"vrf_name":"QAPP_OWAPP","vrf_aci_name":"QAPP_OWAPP_VRF","bgp_asn_aci":64630,"l3out_name":"QAPP_OWAPP_L3OUT","tenant":"SAQ_QA_FW-QA","siteid":"QAP","id":119}, 
 {"vrf_name":"QAPP_PDVPPR_B","vrf_aci_name":"QAPP_PDVPPR_B_VRF","bgp_asn_aci":64631,"l3out_name":"QAPP_PDVPPR_B_L3OUT","tenant":"SAQ_QA_FW-QA","siteid":"QAP","id":120}, 
 {"vrf_name":"QAPP_STDAPP1_V","vrf_aci_name":"QAPP_STDAPP1_V_VRF","bgp_asn_aci":64632,"l3out_name":"QAPP_STDAPP1_V_L3OUT","tenant":"SAQ_QA_FW-QA","siteid":"QAP","id":121}, 
 {"vrf_name":"QAPP_STDBD1_B","vrf_aci_name":"QAPP_STDBD1_B_VRF","bgp_asn_aci":64633,"l3out_name":"QAPP_STDBD1_B_L3OUT","tenant":"SAQ_QA_FW-QA","siteid":"QAP","id":122}, 
 {"vrf_name":"QAPP_STDBD1_J","vrf_aci_name":"QAPP_STDBD1_J_VRF","bgp_asn_aci":64634,"l3out_name":"QAPP_STDBD1_J_L3OUT","tenant":"SAQ_QA_FW-QA","siteid":"QAP","id":123}, 
 {"vrf_name":"QAPP_STDBD1_V","vrf_aci_name":"QAPP_STDBD1_V_VRF","bgp_asn_aci":64635,"l3out_name":"QAPP_STDBD1_V_L3OUT","tenant":"SAQ_QA_FW-QA","siteid":"QAP","id":124}, 
 {"vrf_name":"QAPP_STDWEB1_V","vrf_aci_name":"QAPP_STDWEB1_V_VRF","bgp_asn_aci":64636,"l3out_name":"QAPP_STDWEB1_V_L3OUT","tenant":"SAQ_QA_FW-QA","siteid":"QAP","id":125}, 
 {"vrf_name":"QSVC_EDD","vrf_aci_name":"QSVC_EDD_VRF","bgp_asn_aci":64637,"l3out_name":"QSVC_EDD_L3OUT","tenant":"SAQ_QA_FW-QA","siteid":"QSV","id":126}, 
 {"vrf_name":"QSVC_ELK","vrf_aci_name":"QSVC_ELK_VRF","bgp_asn_aci":64638,"l3out_name":"QSVC_ELK_L3OUT","tenant":"SAQ_QA_FW-QA","siteid":"QSV","id":127}, 
 {"vrf_name":"QSVC_GESTIONUNIX","vrf_aci_name":"QSVC_GESTIONUNIX_VRF","bgp_asn_aci":64639,"l3out_name":"QSVC_GESTIONUNIX_L3OUT","tenant":"SAQ_QA_FW-QA","siteid":"QSV","id":128}, 
 {"vrf_name":"QSVC_SURVEILLANCE","vrf_aci_name":"QSVC_SURVEILLANCE_VRF","bgp_asn_aci":64640,"l3out_name":"QSVC_SURVEILLANCE_L3OUT","tenant":"SAQ_QA_FW-QA","siteid":"QSV","id":129}, 
 {"vrf_name":"QSVC_VMORACLE","vrf_aci_name":"QSVC_VMORACLE_VRF","bgp_asn_aci":64641,"l3out_name":"QSVC_VMORACLE_L3OUT","tenant":"SAQ_QA_FW-QA","siteid":"QSV","id":130}, 
 {"vrf_name":"QSVC_WEBMETHOD","vrf_aci_name":"QSVC_WEBMETHOD_VRF","bgp_asn_aci":64642,"l3out_name":"QSVC_WEBMETHOD_L3OUT","tenant":"SAQ_QA_FW-QA","siteid":"QSV","id":131}, 
 {"vrf_name":"DAPP_SQDCGLOBALE","vrf_aci_name":"DAPP_SQDCGLOBALE_VRF","bgp_asn_aci":64643,"l3out_name":"DAPP_SQDCGLOBALE_L3OUT","tenant":"SQDC_DEV_FW-BLANC","siteid":"DAP","id":132}, 
 {"vrf_name":"DAPP_SQDCSTD1_B","vrf_aci_name":"DAPP_SQDCSTD1_B_VRF","bgp_asn_aci":64644,"l3out_name":"DAPP_SQDCSTD1_B_L3OUT","tenant":"SQDC_DEV_FW-BLANC","siteid":"DAP","id":133}, 
 {"vrf_name":"DAPP_SQDCSTD2_B","vrf_aci_name":"DAPP_SQDCSTD2_B_VRF","bgp_asn_aci":64645,"l3out_name":"DAPP_SQDCSTD2_B_L3OUT","tenant":"SQDC_DEV_FW-QA","siteid":"DAP","id":135}, 
 {"vrf_name":"MGES_SQDCGLOBALE","vrf_aci_name":"MGES_SQDCGLOBALE_VRF","bgp_asn_aci":64646,"l3out_name":"MGES_SQDCGLOBALE_L3OUT","tenant":"SQDC_PRD_FW-BLANC","siteid":"MGE","id":136}, 
 {"vrf_name":"MGES_SQDCJUMPPOINT","vrf_aci_name":"MGES_SQDCJUMPPOINT_VRF","bgp_asn_aci":64647,"l3out_name":"MGES_SQDCJUMPPOINT_L3OUT","tenant":"SQDC_PRD_FW-BLANC","siteid":"MGE","id":137}, 
 {"vrf_name":"PAPP_SQDCGLOBALE","vrf_aci_name":"PAPP_SQDCGLOBALE_VRF","bgp_asn_aci":64648,"l3out_name":"PAPP_SQDCGLOBALE_L3OUT","tenant":"SQDC_PRD_FW-BLANC","siteid":"PAP","id":138}, 
 {"vrf_name":"PAPP_SQDCJDEAPP","vrf_aci_name":"PAPP_SQDCJDEAPP_VRF","bgp_asn_aci":64649,"l3out_name":"PAPP_SQDCJDEAPP_L3OUT","tenant":"SQDC_PRD_FW-BLANC","siteid":"PAP","id":139}, 
 {"vrf_name":"PAPP_SQDCJDEWEB","vrf_aci_name":"PAPP_SQDCJDEWEB_VRF","bgp_asn_aci":64650,"l3out_name":"PAPP_SQDCJDEWEB_L3OUT","tenant":"SQDC_PRD_FW-BLANC","siteid":"PAP","id":140}, 
 {"vrf_name":"PSVC_SQDCBACKUP","vrf_aci_name":"PSVC_SQDCBACKUP_VRF","bgp_asn_aci":64651,"l3out_name":"PSVC_SQDCBACKUP_L3OUT","tenant":"SQDC_PRD_FW-BLANC","siteid":"PSV","id":141}, 
 {"vrf_name":"PSVC_SQDCTELCOMGMT","vrf_aci_name":"PSVC_SQDCTELCOMGMT_VRF","bgp_asn_aci":64652,"l3out_name":"PSVC_SQDCTELCOMGMT_L3OUT","tenant":"SQDC_PRD_FW-BLANC","siteid":"PSV","id":142}, 
 {"vrf_name":"PSVC_SQDCUNIX","vrf_aci_name":"PSVC_SQDCUNIX_VRF","bgp_asn_aci":64653,"l3out_name":"PSVC_SQDCUNIX_L3OUT","tenant":"SQDC_PRD_FW-BLANC","siteid":"PSV","id":143}, 
 {"vrf_name":"PSVC_SQDCWINDOWS","vrf_aci_name":"PSVC_SQDCWINDOWS_VRF","bgp_asn_aci":64654,"l3out_name":"PSVC_SQDCWINDOWS_L3OUT","tenant":"SQDC_PRD_FW-BLANC","siteid":"PSV","id":144}, 
 {"vrf_name":"PAPP_SQDCJDE92APP","vrf_aci_name":"PAPP_SQDCJDE92APP_VRF","bgp_asn_aci":64655,"l3out_name":"PAPP_SQDCJDE92APP_L3OUT","tenant":"SQDC_PRD_FW-BLEU","siteid":"PAP","id":145}, 
 {"vrf_name":"PAPP_SQDCJDE92WEB","vrf_aci_name":"PAPP_SQDCJDE92WEB_VRF","bgp_asn_aci":64656,"l3out_name":"PAPP_SQDCJDE92WEB_L3OUT","tenant":"SQDC_PRD_FW-BLEU","siteid":"PAP","id":146}, 
 {"vrf_name":"PAPP_SQDCPDVAPP1_B","vrf_aci_name":"PAPP_SQDCPDVAPP1_B_VRF","bgp_asn_aci":64657,"l3out_name":"PAPP_SQDCPDVAPP1_B_L3OUT","tenant":"SQDC_PRD_FW-BLEU","siteid":"PAP","id":147}, 
 {"vrf_name":"PDMZ_SQDC","vrf_aci_name":"PDMZ_SQDC_VRF","bgp_asn_aci":64658,"l3out_name":"PDMZ_SQDC_L3OUT","tenant":"SQDC_PRD_FW-DMZ","siteid":"PDM","id":148}, 
 {"vrf_name":"PSVC_SQDCAD","vrf_aci_name":"PSVC_SQDCAD_VRF","bgp_asn_aci":64659,"l3out_name":"PSVC_SQDCAD_L3OUT","tenant":"SQDC_PRD_FW-JAUNE","siteid":"PSV","id":149}, 
 {"vrf_name":"PSVC_SQDCADRODC","vrf_aci_name":"PSVC_SQDCADRODC_VRF","bgp_asn_aci":64660,"l3out_name":"PSVC_SQDCADRODC_L3OUT","tenant":"SQDC_PRD_FW-JAUNE","siteid":"PSV","id":150}, 
 {"vrf_name":"PSVC_SQDCJUMPPOINT","vrf_aci_name":"PSVC_SQDCJUMPPOINT_VRF","bgp_asn_aci":64661,"l3out_name":"PSVC_SQDCJUMPPOINT_L3OUT","tenant":"SQDC_PRD_FW-JAUNE","siteid":"PSV","id":151}, 
 {"vrf_name":"PSVC_SQDCSERVICES","vrf_aci_name":"PSVC_SQDCSERVICES_VRF","bgp_asn_aci":64662,"l3out_name":"PSVC_SQDCSERVICES_L3OUT","tenant":"SQDC_PRD_FW-JAUNE","siteid":"PSV","id":152}, 
 {"vrf_name":"PSVC_SQDCWEBMETHOD","vrf_aci_name":"PSVC_SQDCWEBMETHOD_VRF","bgp_asn_aci":64663,"l3out_name":"PSVC_SQDCWEBMETHOD_L3OUT","tenant":"SQDC_PRD_FW-JAUNE","siteid":"PSV","id":153}, 
 {"vrf_name":"PAPP_SQDCSTDAPP1_V","vrf_aci_name":"PAPP_SQDCSTDAPP1_V_VRF","bgp_asn_aci":64664,"l3out_name":"PAPP_SQDCSTDAPP1_V_L3OUT","tenant":"SQDC_PRD_FW-VERTE","siteid":"PAP","id":154}, 
 {"vrf_name":"QAPP_SQDCGLOBALE","vrf_aci_name":"QAPP_SQDCGLOBALE_VRF","bgp_asn_aci":64665,"l3out_name":"QAPP_SQDCGLOBALE_L3OUT","tenant":"SQDC_QA_FW-BLANC","siteid":"QAP","id":155}, 
 {"vrf_name":"QAPP_SQDCJDEAPP","vrf_aci_name":"QAPP_SQDCJDEAPP_VRF","bgp_asn_aci":64666,"l3out_name":"QAPP_SQDCJDEAPP_L3OUT","tenant":"SQDC_QA_FW-BLANC","siteid":"QAP","id":156}, 
 {"vrf_name":"QAPP_SQDCJDEWEB","vrf_aci_name":"QAPP_SQDCJDEWEB_VRF","bgp_asn_aci":64667,"l3out_name":"QAPP_SQDCJDEWEB_L3OUT","tenant":"SQDC_QA_FW-BLANC","siteid":"QAP","id":157}, 
 {"vrf_name":"QAPP_SQDCSTDBD1_B","vrf_aci_name":"QAPP_SQDCSTDBD1_B_VRF","bgp_asn_aci":64668,"l3out_name":"QAPP_SQDCSTDBD1_B_L3OUT","tenant":"SQDC_QA_FW-BLANC","siteid":"QAP","id":158}, 
 {"vrf_name":"QAPP_SQDCSTDWEB1_B","vrf_aci_name":"QAPP_SQDCSTDWEB1_B_VRF","bgp_asn_aci":64669,"l3out_name":"QAPP_SQDCSTDWEB1_B_L3OUT","tenant":"SQDC_QA_FW-BLANC","siteid":"QAP","id":159}, 
 {"vrf_name":"QAPP_SQDCJDE92APP","vrf_aci_name":"QAPP_SQDCJDE92APP_VRF","bgp_asn_aci":64670,"l3out_name":"QAPP_SQDCJDE92APP_L3OUT","tenant":"SQDC_QA_FW-QA","siteid":"QAP","id":160}, 
 {"vrf_name":"QAPP_SQDCJDE92WEB","vrf_aci_name":"QAPP_SQDCJDE92WEB_VRF","bgp_asn_aci":64671,"l3out_name":"QAPP_SQDCJDE92WEB_L3OUT","tenant":"SQDC_QA_FW-QA","siteid":"QAP","id":161}, 
 {"vrf_name":"QAPP_SQDCPPR_B","vrf_aci_name":"QAPP_SQDCPPR_B_VRF","bgp_asn_aci":64672,"l3out_name":"QAPP_SQDCPPR_B_L3OUT","tenant":"SQDC_QA_FW-QA","siteid":"QAP","id":162}, 
 {"vrf_name":"QAPP_SQDCSTD1_J","vrf_aci_name":"QAPP_SQDCSTD1_J_VRF","bgp_asn_aci":64673,"l3out_name":"QAPP_SQDCSTD1_J_L3OUT","tenant":"SQDC_QA_FW-QA","siteid":"QAP","id":163}, 
 {"vrf_name":"QAPP_SQDCSTDAPP1_B","vrf_aci_name":"QAPP_SQDCSTDAPP1_B_VRF","bgp_asn_aci":64674,"l3out_name":"QAPP_SQDCSTDAPP1_B_L3OUT","tenant":"SQDC_QA_FW-QA","siteid":"QAP","id":164}, 
 {"vrf_name":"QDMZ_SQDC","vrf_aci_name":"QDMZ_SQDC_VRF","bgp_asn_aci":64675,"l3out_name":"QDMZ_SQDC_L3OUT","tenant":"SQDC_QA_FW-QA","siteid":"QDM","id":165}, 
 {"vrf_name":"QSVC_SQDCJUMPPOINT","vrf_aci_name":"QSVC_SQDCJUMPPOINT_VRF","bgp_asn_aci":64676,"l3out_name":"QSVC_SQDCJUMPPOINT_L3OUT","tenant":"SQDC_QA_FW-QA","siteid":"QSV","id":166}, 
 {"vrf_name":"QSVC_SQDCWEBMETHOD","vrf_aci_name":"QSVC_SQDCWEBMETHOD_VRF","bgp_asn_aci":64677,"l3out_name":"QSVC_SQDCWEBMETHOD_L3OUT","tenant":"SQDC_QA_FW-QA","siteid":"QSV","id":167}]