[{"leaf":101,"type_po":"SP"}, 
 {"leaf":123,"type_po":"SP"}, 
 {"leaf":102,"type_po":"SP"}, 
 {"leaf":124,"type_po":"SP"}, 
 {"leaf":122,"type_po":"SP"}, 
 {"leaf":103,"type_po":"SP"}, 
 {"leaf":124,"type_po":"PC"}, 
 {"leaf":123,"type_po":"PC"}, 
 {"leaf":122,"type_po":"PC"}, 
 {"leaf":121,"type_po":"PC"}, 
 {"leaf":104,"type_po":"SP"}, 
 {"leaf":121,"type_po":"SP"}]