[{"leaf":124,"device":"ttelbfpx06","speed":"10G","port":5,"pkey":"124_5"}, 
 {"leaf":122,"device":"ttelbfpx02","speed":"10G","port":5,"pkey":"122_5"}, 
 {"leaf":121,"device":"ttelbfpx01","speed":"10G","port":6,"pkey":"121_6"}, 
 {"leaf":123,"device":"ttelbfpx05","speed":"10G","port":6,"pkey":"123_6"}, 
 {"leaf":121,"device":"ttelbfpx01","speed":"10G","port":5,"pkey":"121_5"}, 
 {"leaf":122,"device":"ttelbfpx02","speed":"10G","port":6,"pkey":"122_6"}, 
 {"leaf":122,"device":"ttelbfpx10","speed":"10G","port":22,"pkey":"122_22"}, 
 {"leaf":122,"device":"ttelbfpx10","speed":"10G","port":21,"pkey":"122_21"}, 
 {"leaf":121,"device":"ttelbfpx09","speed":"10G","port":23,"pkey":"121_23"}, 
 {"leaf":121,"device":"ttelbfpx03","speed":"10G","port":3,"pkey":"121_3"}, 
 {"leaf":122,"device":"ttelbfpx10","speed":"10G","port":24,"pkey":"122_24"}, 
 {"leaf":121,"device":"ttelbfpx09","speed":"10G","port":21,"pkey":"121_21"}, 
 {"leaf":121,"device":"ttelbfpx03","speed":"10G","port":4,"pkey":"121_4"}, 
 {"leaf":121,"device":"ttelbfpx09","speed":"10G","port":24,"pkey":"121_24"}, 
 {"leaf":121,"device":"ttelbfpx09","speed":"10G","port":22,"pkey":"121_22"}, 
 {"leaf":122,"device":"ttelbfpx04","speed":"10G","port":4,"pkey":"122_4"}, 
 {"leaf":122,"device":"ttelbfpx04","speed":"10G","port":3,"pkey":"122_3"}, 
 {"leaf":124,"device":"ttelbfpx06","speed":"10G","port":6,"pkey":"124_6"}, 
 {"leaf":122,"device":"ttelbfpx10","speed":"10G","port":23,"pkey":"122_23"}, 
 {"leaf":123,"device":"ttelbfpx05","speed":"10G","port":5,"pkey":"123_5"}]