pod,speed,device,mode_po,comments,vlan,trunk_vlan,leaf,port,leaf_vpc,type_po
1,40G,SMY_DC_FW01,LACP,VPC Palo Alto Internal FW,1,2764,1431,51,1431-1441,VPC
1,40G,SMY_DC_FW01,LACP,VPC Palo Alto Internal FW,1,3799,1431,51,1431-1441,VPC
1,40G,SMY_DC_FW01,LACP,VPC Palo Alto Internal FW,1,3772,1431,51,1431-1441,VPC
1,40G,SMY_DC_FW01,LACP,VPC Palo Alto Internal FW,1,2797,1431,51,1431-1441,VPC
1,40G,SMY_DC_FW02,LACP,VPC Palo Alto Internal FW,1,2764,1431,52,1431-1441,VPC
1,40G,SMY_DC_FW02,LACP,VPC Palo Alto Internal FW,1,3799,1431,52,1431-1441,VPC
1,40G,SMY_DC_FW02,LACP,VPC Palo Alto Internal FW,1,3772,1431,52,1431-1441,VPC
1,40G,SMY_DC_FW02,LACP,VPC Palo Alto Internal FW,1,2797,1431,52,1431-1441,VPC
1,10G,SMY_EDGE_FW03,LACP,VPC Palo Alto External FW,1,2716,1431,3,1431-1441,VPC
1,10G,SMY_EDGE_FW03,LACP,VPC Palo Alto External FW,1,2717,1431,3,1431-1441,VPC
1,10G,SMY_EDGE_FW03,LACP,VPC Palo Alto External FW,1,3717,1431,3,1431-1441,VPC
1,10G,SMY_EDGE_FW03,LACP,VPC Palo Alto External FW,1,3717,1431,3,1431-1441,VPC
1,10G,SMY_EDGE_FW03,LACP,VPC Palo Alto External FW,1,2716,1431,4,1431-1441,VPC
1,10G,SMY_EDGE_FW03,LACP,VPC Palo Alto External FW,1,2717,1431,4,1431-1441,VPC
1,10G,SMY_EDGE_FW03,LACP,VPC Palo Alto External FW,1,3717,1431,4,1431-1441,VPC
1,10G,SMY_EDGE_FW03,LACP,VPC Palo Alto External FW,1,3717,1431,4,1431-1441,VPC
1,10G,SMY_EDGE_FW04,LACP,VPC Palo Alto External FW,1,2716,1431,5,1431-1441,VPC
1,10G,SMY_EDGE_FW04,LACP,VPC Palo Alto External FW,1,2717,1431,5,1431-1441,VPC
1,10G,SMY_EDGE_FW04,LACP,VPC Palo Alto External FW,1,3717,1431,5,1431-1441,VPC
1,10G,SMY_EDGE_FW04,LACP,VPC Palo Alto External FW,1,3717,1431,5,1431-1441,VPC
1,10G,SMY_EDGE_FW04,LACP,VPC Palo Alto External FW,1,2716,1431,6,1431-1441,VPC
1,10G,SMY_EDGE_FW04,LACP,VPC Palo Alto External FW,1,2717,1431,6,1431-1441,VPC
1,10G,SMY_EDGE_FW04,LACP,VPC Palo Alto External FW,1,3717,1431,6,1431-1441,VPC
1,10G,SMY_EDGE_FW04,LACP,VPC Palo Alto External FW,1,3717,1431,6,1431-1441,VPC
1,40G,RIN_DC_FW01,LACP,VPC Palo Alto Internal FW,1,2764,2231,51,2231-2241,VPC
1,40G,RIN_DC_FW01,LACP,VPC Palo Alto Internal FW,1,3799,2231,51,2231-2241,VPC
1,40G,RIN_DC_FW01,LACP,VPC Palo Alto Internal FW,1,3772,2231,51,2231-2241,VPC
1,40G,RIN_DC_FW01,LACP,VPC Palo Alto Internal FW,1,2797,2231,51,2231-2241,VPC
1,40G,RIN_DC_FW02,LACP,VPC Palo Alto Internal FW,1,2764,2231,52,2231-2241,VPC
1,40G,RIN_DC_FW02,LACP,VPC Palo Alto Internal FW,1,3799,2231,52,2231-2241,VPC
1,40G,RIN_DC_FW02,LACP,VPC Palo Alto Internal FW,1,3772,2231,52,2231-2241,VPC
1,40G,RIN_DC_FW02,LACP,VPC Palo Alto Internal FW,1,2797,2231,52,2231-2241,VPC
1,10G,RIN_EDGE_FW03,LACP,VPC Palo Alto External FW,1,2716,2231,3,2231-2241,VPC
1,10G,RIN_EDGE_FW03,LACP,VPC Palo Alto External FW,1,2717,2231,3,2231-2241,VPC
1,10G,RIN_EDGE_FW03,LACP,VPC Palo Alto External FW,1,3717,2231,3,2231-2241,VPC
1,10G,RIN_EDGE_FW03,LACP,VPC Palo Alto External FW,1,3717,2231,3,2231-2241,VPC
1,10G,RIN_EDGE_FW03,LACP,VPC Palo Alto External FW,1,2716,2231,4,2231-2241,VPC
1,10G,RIN_EDGE_FW03,LACP,VPC Palo Alto External FW,1,2717,2231,4,2231-2241,VPC
1,10G,RIN_EDGE_FW03,LACP,VPC Palo Alto External FW,1,3717,2231,4,2231-2241,VPC
1,10G,RIN_EDGE_FW03,LACP,VPC Palo Alto External FW,1,3717,2231,4,2231-2241,VPC
1,10G,RIN_EDGE_FW04,LACP,VPC Palo Alto External FW,1,2716,2231,5,2231-2241,VPC
1,10G,RIN_EDGE_FW04,LACP,VPC Palo Alto External FW,1,2717,2231,5,2231-2241,VPC
1,10G,RIN_EDGE_FW04,LACP,VPC Palo Alto External FW,1,3717,2231,5,2231-2241,VPC
1,10G,RIN_EDGE_FW04,LACP,VPC Palo Alto External FW,1,3717,2231,5,2231-2241,VPC
1,10G,RIN_EDGE_FW04,LACP,VPC Palo Alto External FW,1,2716,2231,6,2231-2241,VPC
1,10G,RIN_EDGE_FW04,LACP,VPC Palo Alto External FW,1,2717,2231,6,2231-2241,VPC
1,10G,RIN_EDGE_FW04,LACP,VPC Palo Alto External FW,1,3717,2231,6,2231-2241,VPC
1,10G,RIN_EDGE_FW04,LACP,VPC Palo Alto External FW,1,3717,2231,6,2231-2241,VPC
1,10G,SMY_LB03_EXT_HA_P3,,F5 LB External HA,1012,,1431,11,,SP
1,10G,SMY_LB03_EXT_HA_P4,,F5 LB External HA,1012,,1441,11,,SP
1,10G,SMY_LB04_EXT_HA_P3,,F5 LB External HA,1012,,1431,12,,SP
1,10G,SMY_LB04_EXT_HA_P4,,F5 LB External HA,1012,,1441,12,,SP
1,10G,RIN_LB03_EXT_HA_P3,,F5 LB External HA,1112,,2231,11,,SP
1,10G,RIN_LB03_EXT_HA_P4,,F5 LB External HA,1112,,2241,11,,SP
1,10G,RIN_LB04_EXT_HA_P3,,F5 LB External HA,1112,,2231,12,,SP
1,10G,RIN_LB04_EXT_HA_P4,,F5 LB External HA,1112,,2241,12,,SP
1,10G,CENTURY-RTR-1,,CENTURY-RTR-1,3061,,2231,48,,SP
1,10G,ATT-RTR-2,,ATT-RTR-2,3062,,2241,48,,SP
1,10G,DC-US-RIN-0002-R203-RT-01,LACP,DC-US-RIN-0002-R203-RT-01,3061,,2231,1,2231,PC
1,10G,DC-US-RIN-0002-R203-RT-01,LACP,DC-US-RIN-0002-R203-RT-01,3061,,2231,2,2231,PC
1,10G,DC-US-RIN-0002-R204-RT-02,LACP,DC-US-RIN-0002-R204-RT-02,3062,,2241,1,2241,PC
1,10G,DC-US-RIN-0002-R204-RT-02,LACP,DC-US-RIN-0002-R204-RT-02,3062,,2241,2,2241,PC
1,10G,CENTURY-RTR-1,,CENTURY-RTR-1,3051,,1431,48,,SP
1,10G,ATT-RTR-2,,ATT-RTR-2,3052,,1441,48,,SP
1,10G,DC-US-SMY-0001-CR50-RT-01,LACP,DC-US-SMY-0001-CR50-RT-01,3051,,1431,1,1431,PC
1,10G,DC-US-SMY-0001-CR50-RT-01,LACP,DC-US-SMY-0001-CR50-RT-01,3051,,1431,2,1431,PC
1,10G,DC-US-SMY-0001-CR51-RT-02,LACP,DC-US-SMY-0001-CR51-RT-02,3052,,1441,1,1441,PC
1,10G,DC-US-SMY-0001-CR51-RT-02,LACP,DC-US-SMY-0001-CR51-RT-02,3052,,1441,2,1441,PC
1,100M,TEST1234,"",TEST1234,1,222,2222,11,"",SP
1,25G,TEST1234-1,LACP,TEST1234-1,122,"",2222,33,2222,PC
1,100G,TEST1234-2,STATIC,TEST1234-2,1,3333,2222,14,2222-2224,VPC
1,10G,SMY_EDGE_FW03,LACP,VPC Palo Alto External FW,1,1307,1431,3,1431-1441,VPC
1,10G,SMY_EDGE_FW03,LACP,VPC Palo Alto External FW,1,1307,1431,3,1431-1441,VPC
1,10G,SMY_EDGE_FW03,LACP,VPC Palo Alto External FW,1,1307,1431,4,1431-1441,VPC
1,10G,SMY_EDGE_FW03,LACP,VPC Palo Alto External FW,1,1307,1431,4,1431-1441,VPC
1,10G,SMY_EDGE_FW04,LACP,VPC Palo Alto External FW,1,1307,1431,5,1431-1441,VPC
1,10G,SMY_EDGE_FW04,LACP,VPC Palo Alto External FW,1,1307,1431,5,1431-1441,VPC
1,10G,SMY_EDGE_FW04,LACP,VPC Palo Alto External FW,1,1307,1431,6,1431-1441,VPC
1,10G,SMY_EDGE_FW04,LACP,VPC Palo Alto External FW,1,1307,1431,6,1431-1441,VPC
1,10G,RIN_EDGE_FW03,LACP,VPC Palo Alto External FW,1,1307,2231,3,2231-2241,VPC
1,10G,RIN_EDGE_FW03,LACP,VPC Palo Alto External FW,1,1307,2231,3,2231-2241,VPC
1,10G,RIN_EDGE_FW03,LACP,VPC Palo Alto External FW,1,1307,2231,4,2231-2241,VPC
1,10G,RIN_EDGE_FW03,LACP,VPC Palo Alto External FW,1,1307,2231,4,2231-2241,VPC
1,10G,RIN_EDGE_FW04,LACP,VPC Palo Alto External FW,1,1307,2231,5,2231-2241,VPC
1,10G,RIN_EDGE_FW04,LACP,VPC Palo Alto External FW,1,1307,2231,5,2231-2241,VPC
1,10G,RIN_EDGE_FW04,LACP,VPC Palo Alto External FW,1,1307,2231,6,2231-2241,VPC
1,10G,RIN_EDGE_FW04,LACP,VPC Palo Alto External FW,1,1307,2231,6,2231-2241,VPC
